Sophomore/quartus II/e5/simulation/qsim/exp_5.msim.vcd
$comment
	File created using the following command:
		vcd file exp_5.msim.vcd -direction
$end
$date
	Thu Nov 14 22:34:01 2019
$end
$version
	ModelSim Version 10.1d
$end
$timescale
	1ps
$end
$scope module exp_5_vlg_vec_tst $end
$var reg 1 ! clk $end
$var reg 1 " reset $end
$var wire 1 # out [15] $end
$var wire 1 $ out [14] $end
$var wire 1 % out [13] $end
$var wire 1 & out [12] $end
$var wire 1 ' out [11] $end
$var wire 1 ( out [10] $end
$var wire 1 ) out [9] $end
$var wire 1 * out [8] $end
$var wire 1 + out [7] $end
$var wire 1 , out [6] $end
$var wire 1 - out [5] $end
$var wire 1 . out [4] $end
$var wire 1 / out [3] $end
$var wire 1 0 out [2] $end
$var wire 1 1 out [1] $end
$var wire 1 2 out [0] $end
$var wire 1 3 sampler $end
$scope module i1 $end
$var wire 1 4 gnd $end
$var wire 1 5 vcc $end
$var wire 1 6 unknown $end
$var tri1 1 7 devclrn $end
$var tri1 1 8 devpor $end
$var tri1 1 9 devoe $end
$var wire 1 : out[0]~output_o $end
$var wire 1 ; out[1]~output_o $end
$var wire 1 < out[2]~output_o $end
$var wire 1 = out[3]~output_o $end
$var wire 1 > out[4]~output_o $end
$var wire 1 ? out[5]~output_o $end
$var wire 1 @ out[6]~output_o $end
$var wire 1 A out[7]~output_o $end
$var wire 1 B out[8]~output_o $end
$var wire 1 C out[9]~output_o $end
$var wire 1 D out[10]~output_o $end
$var wire 1 E out[11]~output_o $end
$var wire 1 F out[12]~output_o $end
$var wire 1 G out[13]~output_o $end
$var wire 1 H out[14]~output_o $end
$var wire 1 I out[15]~output_o $end
$var wire 1 J clk~input_o $end
$var wire 1 K clk~inputclkctrl_outclk $end
$var wire 1 L state.S0~0_combout $end
$var wire 1 M reset~input_o $end
$var wire 1 N reset~inputclkctrl_outclk $end
$var wire 1 O state.S0~q $end
$var wire 1 P state.S1~0_combout $end
$var wire 1 Q state.S1~q $end
$var wire 1 R state.S2~feeder_combout $end
$var wire 1 S state.S2~q $end
$var wire 1 T state.S3~feeder_combout $end
$var wire 1 U state.S3~q $end
$var wire 1 V state.S4~feeder_combout $end
$var wire 1 W state.S4~q $end
$var wire 1 X state.S5~feeder_combout $end
$var wire 1 Y state.S5~q $end
$var wire 1 Z state.S6~feeder_combout $end
$var wire 1 [ state.S6~q $end
$var wire 1 \ state.S7~feeder_combout $end
$var wire 1 ] state.S7~q $end
$var wire 1 ^ state.S8~feeder_combout $end
$var wire 1 _ state.S8~q $end
$var wire 1 ` state.S9~feeder_combout $end
$var wire 1 a state.S9~q $end
$var wire 1 b state.S10~feeder_combout $end
$var wire 1 c state.S10~q $end
$var wire 1 d state.S11~feeder_combout $end
$var wire 1 e state.S11~q $end
$var wire 1 f state.S12~feeder_combout $end
$var wire 1 g state.S12~q $end
$var wire 1 h state.S13~feeder_combout $end
$var wire 1 i state.S13~q $end
$var wire 1 j state.S14~feeder_combout $end
$var wire 1 k state.S14~q $end
$var wire 1 l state.S15~feeder_combout $end
$var wire 1 m state.S15~q $end
$upscope $end
$upscope $end
$enddefinitions $end
#0
$dumpvars
0!
0"
12
11
10
1/
1.
1-
1,
1+
1*
1)
1(
1'
1&
1%
1$
0#
x3
04
15
x6
17
18
19
1:
1;
1<
1=
1>
1?
1@
1A
1B
1C
1D
1E
1F
1G
1H
0I
0J
0K
1L
0M
0N
0O
1P
0Q
0R
0S
0T
0U
0V
0W
0X
0Y
0Z
0[
0\
0]
0^
0_
0`
0a
0b
0c
0d
0e
0f
0g
0h
0i
0j
0k
0l
0m
$end
#50000
1!
1J
1K
03
1Q
1O
1R
0P
0H
1I
0$
1#
#100000
0!
0J
0K
13
#150000
1!
1J
1K
03
1S
0Q
1T
0R
0G
1H
0%
1$
#200000
0!
0J
0K
13
#250000
1!
1J
1K
03
1U
0S
1V
0T
0F
1G
0&
1%
#300000
0!
0J
0K
13
#350000
1"
1!
1M
1J
1N
1K
03
0U
0O
0V
1P
1F
0I
1&
0#
#400000
0!
0J
0K
13
#450000
1!
1J
1K
03
#500000
0!
0J
0K
13
#550000
0"
1!
0M
1J
0N
1K
03
#600000
0!
0J
0K
13
#650000
1!
1J
1K
03
1Q
1O
1R
0P
0H
1I
0$
1#
#700000
0!
0J
0K
13
#750000
1!
1J
1K
03
1S
0Q
1T
0R
0G
1H
0%
1$
#800000
0!
0J
0K
13
#850000
1!
1J
1K
03
1U
0S
1V
0T
0F
1G
0&
1%
#900000
0!
0J
0K
13
#950000
1!
1J
1K
03
1W
0U
1X
0V
0E
1F
0'
1&
#1000000
0!
0J
0K
13
#1050000
1!
1J
1K
03
1Y
0W
1Z
0X
0D
1E
0(
1'
#1100000
0!
0J
0K
13
#1150000
1!
1J
1K
03
1[
0Y
1\
0Z
0C
1D
0)
1(
#1200000
0!
0J
0K
13
#1250000
1!
1J
1K
03
1]
0[
1^
0\
0B
1C
0*
1)
#1300000
0!
0J
0K
13
#1350000
1!
1J
1K
03
1_
0]
1`
0^
0A
1B
0+
1*
#1400000
0!
0J
0K
13
#1450000
1!
1J
1K
03
1a
0_
1b
0`
0@
1A
0,
1+
#1500000
0!
0J
0K
13
#1550000
1!
1J
1K
03
1c
0a
1d
0b
0?
1@
0-
1,
#1600000
0!
0J
0K
13
#1650000
1!
1J
1K
03
1e
0c
1f
0d
0>
1?
0.
1-
#1700000
0!
0J
0K
13
#1750000
1!
1J
1K
03
1g
0e
1h
0f
0=
1>
0/
1.
#1800000
0!
0J
0K
13
#1850000
1!
1J
1K
03
1i
0g
1j
0h
0<
1=
00
1/
#1900000
0!
0J
0K
13
#1950000
1!
1J
1K
03
1k
0i
1l
0j
0;
1<
01
10
