Sophomore/Digital Circuit Experiment/e6/simulation/qsim/exp6.msim.vcd
$comment
	File created using the following command:
		vcd file exp6.msim.vcd -direction
$end
$date
	Thu Nov 14 21:15:31 2019
$end
$version
	ModelSim Version 10.1d
$end
$timescale
	1ps
$end
$scope module exp6_top_vlg_vec_tst $end
$var reg 1 ! A1 $end
$var reg 1 " B1 $end
$var reg 1 # C1 $end
$var reg 1 $ CLK $end
$var reg 1 % CLRN $end
$var reg 1 & D1 $end
$var reg 1 ' ENP $end
$var reg 1 ( ENT $end
$var reg 1 ) LDN $end
$var wire 1 * RCO $end
$var wire 1 + a $end
$var wire 1 , b $end
$var wire 1 - c $end
$var wire 1 . d $end
$var wire 1 / e $end
$var wire 1 0 f $end
$var wire 1 1 g $end
$var wire 1 2 sel $end
$var wire 1 3 sampler $end
$scope module i1 $end
$var wire 1 4 gnd $end
$var wire 1 5 vcc $end
$var wire 1 6 unknown $end
$var tri1 1 7 devclrn $end
$var tri1 1 8 devpor $end
$var tri1 1 9 devoe $end
$var wire 1 : D1~input_o $end
$var wire 1 ; CLK~input_o $end
$var wire 1 < ENP~input_o $end
$var wire 1 = C1~input_o $end
$var wire 1 > A1~input_o $end
$var wire 1 ? B1~input_o $end
$var wire 1 @ CLK~inputclkctrl_outclk $end
$var wire 1 A RCO~output_o $end
$var wire 1 B a~output_o $end
$var wire 1 C b~output_o $end
$var wire 1 D c~output_o $end
$var wire 1 E d~output_o $end
$var wire 1 F e~output_o $end
$var wire 1 G f~output_o $end
$var wire 1 H g~output_o $end
$var wire 1 I sel~output_o $end
$var wire 1 J LDN~input_o $end
$var wire 1 K CLRN~input_o $end
$var wire 1 L comb_4|QA~1_combout $end
$var wire 1 M ENT~input_o $end
$var wire 1 N comb_4|QA~0_combout $end
$var wire 1 O comb_4|QA~q $end
$var wire 1 P comb_4|QB~0_combout $end
$var wire 1 Q comb_4|QB~1_combout $end
$var wire 1 R comb_4|QB~q $end
$var wire 1 S comb_4|Add0~1_combout $end
$var wire 1 T comb_4|QC~0_combout $end
$var wire 1 U comb_4|QC~q $end
$var wire 1 V comb_4|Add0~0_combout $end
$var wire 1 W comb_4|QD~0_combout $end
$var wire 1 X comb_4|QD~q $end
$var wire 1 Y comb_4|RCO~0_combout $end
$var wire 1 Z comb_4|RCO~combout $end
$var wire 1 [ comb_3|a~0_combout $end
$var wire 1 \ comb_3|WideOr0~0_combout $end
$var wire 1 ] comb_3|WideOr1~0_combout $end
$var wire 1 ^ comb_3|WideOr2~0_combout $end
$var wire 1 _ comb_3|WideOr3~0_combout $end
$var wire 1 ` comb_3|WideOr4~0_combout $end
$var wire 1 a comb_3|WideOr5~0_combout $end
$upscope $end
$upscope $end
$enddefinitions $end
#0
$dumpvars
0!
0"
0#
1$
1%
0&
1'
1(
1)
0*
1+
1,
1-
1.
1/
10
01
02
x3
04
15
x6
17
18
19
0:
1;
1<
0=
0>
0?
1@
0A
1B
1C
1D
1E
1F
1G
0H
0I
1J
1K
1L
1M
1N
0O
0P
0Q
0R
0S
0T
0U
0V
0W
0X
0Y
0Z
0[
0\
0]
0^
0_
0`
0a
$end
#50000
0$
0;
0@
03
#100000
1$
1;
1@
13
1O
1`
1_
1^
1[
1P
0L
1Q
0G
0F
0E
0B
00
0/
0.
0+
#150000
0$
0;
0@
03
#200000
1$
1;
1@
13
1R
0O
0_
0^
1]
0[
1L
1a
1F
1E
0D
1B
1H
1/
1.
0-
1+
11
#250000
0$
0;
0@
03
#300000
1$
1;
1@
13
1O
1_
0]
1S
0P
0L
1T
0Q
0F
1D
0/
1-
#350000
0$
0;
0@
03
#400000
1$
1;
1@
13
1U
0R
0O
0`
1^
1[
1L
1G
0E
0B
10
0.
0+
#450000
0$
0;
0@
03
#500000
1$
1;
1@
13
1O
0^
1\
0[
1P
0L
1Q
1E
0C
1B
1.
0,
1+
#550000
0$
0;
0@
03
#600000
1$
1;
1@
13
1R
0O
0_
1L
1F
1/
#650000
0$
0;
0@
03
#700000
1$
1;
1@
13
1O
1`
1_
1^
0\
1Y
1V
0S
0P
0L
0a
1W
0T
0Q
0G
0F
0E
1C
0H
00
0/
0.
1,
01
#750000
0$
0;
0@
03
#800000
1$
1;
1@
13
1X
0U
0R
0O
0`
0_
0^
0Y
1L
1a
1Z
1G
1F
1E
1H
1A
10
1/
1.
11
1*
0Z
0A
0*
#850000
0$
0;
0@
03
#900000
1$
1;
1@
13
1O
1_
1P
0L
1Q
0F
0/
#950000
0$
0;
0@
03
#1000000
1$
1;
1@
13
1R
0O
0_
1]
1\
1L
1F
0D
0C
1/
0-
0,
#1050000
0$
0;
0@
03
#1100000
1$
1;
1@
13
1O
1S
0P
0L
1T
0Q
#1150000
0$
0;
0@
03
#1200000
1$
1;
1@
13
1U
0R
0O
1L
#1250000
0$
0;
0@
03
#1300000
1$
1;
1@
13
1O
1P
0L
1Q
#1350000
0$
0;
0@
03
#1400000
1$
1;
1@
13
1R
0O
1L
#1450000
0$
0;
0@
03
#1500000
1$
1;
1@
13
1O
1Y
0V
0S
0P
0L
0W
0T
0Q
1Z
1A
1*
#1550000
0$
0;
0@
03
#1600000
1$
1;
1@
13
0X
0U
0R
0O
0]
0\
0Y
1L
0a
0Z
1D
1C
0H
0A
1-
1,
01
0*
#1650000
0$
0;
0@
03
#1700000
1$
1;
1@
13
1O
1`
1_
1^
1[
1P
0L
1Q
0G
0F
0E
0B
00
0/
0.
0+
#1750000
0$
0;
0@
03
#1800000
1$
1;
1@
13
1R
0O
0_
0^
1]
0[
1L
1a
1F
1E
0D
1B
1H
1/
1.
0-
1+
11
#1850000
0$
0;
0@
03
#1900000
1$
1;
1@
13
1O
1_
0]
1S
0P
0L
1T
0Q
0F
1D
0/
1-
#1950000
0$
0;
0@
03
