Sophomore/quartus II/e11/simulation/qsim/e11.msim.vcd
$comment
	File created using the following command:
		vcd file e11.msim.vcd -direction
$end
$date
	Fri Dec 06 09:13:41 2019
$end
$version
	ModelSim Version 10.1d
$end
$timescale
	1ps
$end
$scope module keyboard_scan_vlg_vec_tst $end
$var reg 1 ! clk $end
$var reg 1 " rst $end
$var reg 4 # swr [3:0] $end
$var wire 1 $ key [3] $end
$var wire 1 % key [2] $end
$var wire 1 & key [1] $end
$var wire 1 ' key [0] $end
$var wire 1 ( pressed $end
$var wire 1 ) swc [3] $end
$var wire 1 * swc [2] $end
$var wire 1 + swc [1] $end
$var wire 1 , swc [0] $end
$var wire 1 - sampler $end
$scope module i1 $end
$var wire 1 . gnd $end
$var wire 1 / vcc $end
$var wire 1 0 unknown $end
$var tri1 1 1 devclrn $end
$var tri1 1 2 devpor $end
$var tri1 1 3 devoe $end
$var wire 1 4 swr[3]~input_o $end
$var wire 1 5 swc[0]~output_o $end
$var wire 1 6 swc[1]~output_o $end
$var wire 1 7 swc[2]~output_o $end
$var wire 1 8 swc[3]~output_o $end
$var wire 1 9 key[0]~output_o $end
$var wire 1 : key[1]~output_o $end
$var wire 1 ; key[2]~output_o $end
$var wire 1 < key[3]~output_o $end
$var wire 1 = pressed~output_o $end
$var wire 1 > clk~input_o $end
$var wire 1 ? clk~inputclkctrl_outclk $end
$var wire 1 @ state.01~0_combout $end
$var wire 1 A swr[0]~input_o $end
$var wire 1 B swr[2]~input_o $end
$var wire 1 C swr[1]~input_o $end
$var wire 1 D WideAnd0~0_combout $end
$var wire 1 E state.01~q $end
$var wire 1 F state.10~feeder_combout $end
$var wire 1 G state.10~q $end
$var wire 1 H state.11~feeder_combout $end
$var wire 1 I state.11~q $end
$var wire 1 J state.00~0_combout $end
$var wire 1 K state.00~q $end
$var wire 1 L swc~4_combout $end
$var wire 1 M rst~input_o $end
$var wire 1 N rst~inputclkctrl_outclk $end
$var wire 1 O swc[3]~reg0_q $end
$var wire 1 P swc~3_combout $end
$var wire 1 Q swc[2]~reg0_q $end
$var wire 1 R swc~2_combout $end
$var wire 1 S swc[1]~reg0_q $end
$var wire 1 T swc~1_combout $end
$var wire 1 U swc[0]~reg0_q $end
$var wire 1 V key~0_combout $end
$var wire 1 W key[0]~reg0_q $end
$var wire 1 X key~1_combout $end
$var wire 1 Y key[1]~reg0_q $end
$var wire 1 Z WideOr0~0_combout $end
$var wire 1 [ Selector5~0_combout $end
$var wire 1 \ key[2]~reg0_q $end
$var wire 1 ] Selector4~0_combout $end
$var wire 1 ^ key[3]~reg0_q $end
$var wire 1 _ pressed~reg0_q $end
$upscope $end
$upscope $end
$enddefinitions $end
#0
$dumpvars
0!
1"
b1111 #
0'
0&
0%
0$
0(
0,
0+
0*
0)
x-
0.
1/
x0
11
12
13
14
05
06
07
08
09
0:
0;
0<
0=
0>
0?
1@
1A
1B
1C
1D
0E
0F
0G
0H
0I
1J
0K
1L
1M
1N
0O
1P
0Q
1R
0S
0T
0U
0V
0W
0X
0Y
0Z
0[
0\
0]
0^
0_
$end
#10000
1!
1>
1?
0-
1K
1E
1S
1Q
1O
1T
0L
0@
1F
16
17
18
1+
1*
1)
#20000
0!
0>
0?
1-
#30000
1!
1>
1?
0-
1G
0E
1U
0O
1H
0F
1L
0P
15
08
1,
0)
#40000
0!
0>
0?
1-
#50000
1!
1>
1?
0-
1I
0G
0Q
1O
0J
0H
0R
1P
07
18
0*
1)
#60000
0!
0>
0?
1-
#70000
1!
1>
1?
0-
0K
0I
0S
1Q
0T
1R
1@
1J
06
17
0+
1*
#80000
0!
0>
0?
1-
#90000
1!
1>
1?
0-
1K
1E
0U
1S
1T
0L
0@
1F
05
16
0,
1+
#100000
0!
0>
0?
1-
#110000
1!
1>
1?
0-
1G
0E
1U
0O
1H
0F
1L
0P
15
08
1,
0)
#120000
0!
0>
0?
1-
#130000
1!
1>
1?
0-
1I
0G
0Q
1O
0J
0H
0R
1P
07
18
0*
1)
#140000
0!
0>
0?
1-
#150000
1!
1>
1?
0-
0K
0I
0S
1Q
0T
1R
1@
1J
06
17
0+
1*
#160000
0!
0>
0?
1-
#170000
1!
1>
1?
0-
1K
1E
0U
1S
1T
0L
0@
1F
05
16
0,
1+
#180000
0!
0>
0?
1-
#190000
1!
1>
1?
0-
1G
0E
1U
0O
1H
0F
1L
0P
15
08
1,
0)
#200000
0!
0>
0?
1-
#210000
1!
1>
1?
0-
1I
0G
0Q
1O
0J
0H
0R
1P
07
18
0*
1)
#220000
0!
0>
0?
1-
#230000
1!
1>
1?
0-
0K
0I
0S
1Q
0T
1R
1@
1J
06
17
0+
1*
#240000
0!
0>
0?
1-
#250000
1!
1>
1?
0-
1K
1E
0U
1S
1T
0L
0@
1F
05
16
0,
1+
#260000
0!
0>
0?
1-
#270000
1!
1>
1?
0-
1G
0E
1U
0O
1H
0F
1L
0P
15
08
1,
0)
#280000
0!
0>
0?
1-
#290000
1!
1>
1?
0-
1I
0G
0Q
1O
0J
0H
0R
1P
07
18
0*
1)
#300000
0!
0>
0?
1-
#310000
1!
1>
1?
0-
0K
0I
0S
1Q
0T
1R
1@
1J
06
17
0+
1*
#320000
0!
0>
0?
1-
#330000
1!
1>
1?
0-
1K
1E
0U
1S
1T
0L
0@
1F
05
16
0,
1+
#340000
0!
0>
0?
1-
#350000
1!
1>
1?
0-
1G
0E
1U
0O
1H
0F
1L
0P
15
08
1,
0)
#360000
0!
0>
0?
1-
#370000
b1110 #
1!
0A
1>
1?
0-
1Z
0D
1]
1I
0G
0Q
1O
0J
1[
0H
0R
1P
07
18
0*
1)
#380000
0!
0>
0?
1-
#390000
1!
1>
1?
0-
1_
1^
1\
0S
1Q
0T
1R
1=
1<
1;
06
17
1(
1$
1%
0+
1*
#400000
0!
0>
0?
1-
#410000
1!
1>
1?
0-
0U
1S
0L
1T
05
16
0,
1+
#420000
0!
0>
0?
1-
#430000
1!
1>
1?
0-
1U
0O
1L
0P
15
08
1,
0)
#440000
0!
0>
0?
1-
#450000
1!
1>
1?
0-
0Q
1O
0R
1P
07
18
0*
1)
#460000
0!
0>
0?
1-
#470000
1!
1>
1?
0-
0S
1Q
0T
1R
06
17
0+
1*
#480000
0!
0>
0?
1-
#490000
1!
1>
1?
0-
0U
1S
0L
1T
05
16
0,
1+
#500000
0!
0>
0?
1-
#510000
1!
1>
1?
0-
1U
0O
1L
0P
15
08
1,
0)
#520000
0!
0>
0?
1-
#530000
1!
1>
1?
0-
0Q
1O
0R
1P
07
18
0*
1)
#540000
0!
0>
0?
1-
#550000
1!
1>
1?
0-
0S
1Q
0T
1R
06
17
0+
1*
#560000
0!
0>
0?
1-
#570000
1!
1>
1?
0-
0U
1S
0L
1T
05
16
0,
1+
#580000
0!
0>
0?
1-
#590000
1!
1>
1?
0-
1U
0O
1L
0P
15
08
1,
0)
#600000
0!
0>
0?
1-
#610000
b1111 #
1!
1A
1>
1?
0-
0Z
1D
0]
0[
0Q
1O
0R
1P
07
18
0*
1)
#620000
0!
0>
0?
1-
#630000
1!
1>
1?
0-
0K
0I
0_
0^
0\
0S
1Q
0T
1R
1@
1J
0=
0<
0;
06
17
0(
0$
0%
0+
1*
#640000
0!
0>
0?
1-
#650000
1!
1>
1?
0-
1K
1E
0U
1S
1T
0L
0@
1F
05
16
0,
1+
#660000
0!
0>
0?
1-
#670000
1!
1>
1?
0-
1G
0E
1U
0O
1H
0F
1L
0P
15
08
1,
0)
#680000
0!
0>
0?
1-
#690000
1!
1>
1?
0-
1I
0G
0Q
1O
0J
0H
0R
1P
07
18
0*
1)
#700000
0!
0>
0?
1-
#710000
1!
1>
1?
0-
0K
0I
0S
1Q
0T
1R
1@
1J
06
17
0+
1*
#720000
0!
0>
0?
1-
#730000
1!
1>
1?
0-
1K
1E
0U
1S
1T
0L
0@
1F
05
16
0,
1+
#740000
0!
0>
0?
1-
#750000
1!
1>
1?
0-
1G
0E
1U
0O
1H
0F
1L
0P
15
08
1,
0)
#760000
0!
0>
0?
1-
#770000
1!
1>
1?
0-
1I
0G
0Q
1O
0J
0H
0R
1P
07
18
0*
1)
#780000
0!
0>
0?
1-
#790000
1!
1>
1?
0-
0K
0I
0S
1Q
0T
1R
1@
1J
06
17
0+
1*
#800000
0!
0>
0?
1-
#810000
1!
1>
1?
0-
1K
1E
0U
1S
1T
0L
0@
1F
05
16
0,
1+
#820000
0!
0>
0?
1-
#830000
1!
1>
1?
0-
1G
0E
1U
0O
1H
0F
1L
0P
15
08
1,
0)
#840000
0!
0>
0?
1-
#850000
1!
1>
1?
0-
1I
0G
0Q
1O
0J
0H
0R
1P
07
18
0*
1)
#860000
0!
0>
0?
1-
#870000
1!
1>
1?
0-
0K
0I
0S
1Q
0T
1R
1@
1J
06
17
0+
1*
#880000
0!
0>
0?
1-
#890000
1!
1>
1?
0-
1K
1E
0U
1S
1T
0L
0@
1F
05
16
0,
1+
#900000
0!
0>
0?
1-
#910000
1!
1>
1?
0-
1G
0E
1U
0O
1H
0F
1L
0P
15
08
1,
0)
#920000
0!
0>
0?
1-
#930000
1!
1>
1?
0-
1I
0G
0Q
1O
0J
0H
0R
1P
07
18
0*
1)
#940000
0!
0>
0?
1-
#950000
1!
1>
1?
0-
0K
0I
0S
1Q
0T
1R
1@
1J
06
17
0+
1*
#960000
0!
0>
0?
1-
#970000
1!
1>
1?
0-
1K
1E
0U
1S
1T
0L
0@
1F
05
16
0,
1+
#980000
0!
0>
0?
1-
#990000
1!
1>
1?
0-
1G
0E
1U
0O
1H
0F
1L
0P
15
08
1,
0)
