Sophomore/quartus II/e10/simulation/qsim/exp10.msim.vcd
$comment
	File created using the following command:
		vcd file exp10.msim.vcd -direction
$end
$date
	Fri Nov 29 09:17:50 2019
$end
$version
	ModelSim Version 10.1d
$end
$timescale
	1ps
$end
$scope module experimentIII_vlg_vec_tst $end
$var reg 1 ! clk $end
$var reg 1 " en $end
$var reg 1 # rst $end
$var reg 3 $ sel [2:0] $end
$var reg 1 % stop $end
$var wire 1 & in1 [3] $end
$var wire 1 ' in1 [2] $end
$var wire 1 ( in1 [1] $end
$var wire 1 ) in1 [0] $end
$var wire 1 * in2 [3] $end
$var wire 1 + in2 [2] $end
$var wire 1 , in2 [1] $end
$var wire 1 - in2 [0] $end
$var wire 1 . in3 [3] $end
$var wire 1 / in3 [2] $end
$var wire 1 0 in3 [1] $end
$var wire 1 1 in3 [0] $end
$var wire 1 2 in4 [3] $end
$var wire 1 3 in4 [2] $end
$var wire 1 4 in4 [1] $end
$var wire 1 5 in4 [0] $end
$var wire 1 6 in5 [3] $end
$var wire 1 7 in5 [2] $end
$var wire 1 8 in5 [1] $end
$var wire 1 9 in5 [0] $end
$var wire 1 : in6 [3] $end
$var wire 1 ; in6 [2] $end
$var wire 1 < in6 [1] $end
$var wire 1 = in6 [0] $end
$var wire 1 > in7 [3] $end
$var wire 1 ? in7 [2] $end
$var wire 1 @ in7 [1] $end
$var wire 1 A in7 [0] $end
$var wire 1 B in8 [3] $end
$var wire 1 C in8 [2] $end
$var wire 1 D in8 [1] $end
$var wire 1 E in8 [0] $end
$var wire 1 F out [3] $end
$var wire 1 G out [2] $end
$var wire 1 H out [1] $end
$var wire 1 I out [0] $end
$var wire 1 J sampler $end
$scope module i1 $end
$var wire 1 K gnd $end
$var wire 1 L vcc $end
$var wire 1 M unknown $end
$var tri1 1 N devclrn $end
$var tri1 1 O devpor $end
$var tri1 1 P devoe $end
$var wire 1 Q out~12_combout $end
$var wire 1 R in1[2]~4_combout $end
$var wire 1 S in1[2]~5_combout $end
$var wire 1 T Add2~0_combout $end
$var wire 1 U Add1~1_combout $end
$var wire 1 V Add0~1_combout $end
$var wire 1 W Add6~1_combout $end
$var wire 1 X Add7~1_combout $end
$var wire 1 Y out[0]~output_o $end
$var wire 1 Z out[1]~output_o $end
$var wire 1 [ out[2]~output_o $end
$var wire 1 \ out[3]~output_o $end
$var wire 1 ] in8[0]~output_o $end
$var wire 1 ^ in8[1]~output_o $end
$var wire 1 _ in8[2]~output_o $end
$var wire 1 ` in8[3]~output_o $end
$var wire 1 a in7[0]~output_o $end
$var wire 1 b in7[1]~output_o $end
$var wire 1 c in7[2]~output_o $end
$var wire 1 d in7[3]~output_o $end
$var wire 1 e in6[0]~output_o $end
$var wire 1 f in6[1]~output_o $end
$var wire 1 g in6[2]~output_o $end
$var wire 1 h in6[3]~output_o $end
$var wire 1 i in5[0]~output_o $end
$var wire 1 j in5[1]~output_o $end
$var wire 1 k in5[2]~output_o $end
$var wire 1 l in5[3]~output_o $end
$var wire 1 m in4[0]~output_o $end
$var wire 1 n in4[1]~output_o $end
$var wire 1 o in4[2]~output_o $end
$var wire 1 p in4[3]~output_o $end
$var wire 1 q in3[0]~output_o $end
$var wire 1 r in3[1]~output_o $end
$var wire 1 s in3[2]~output_o $end
$var wire 1 t in3[3]~output_o $end
$var wire 1 u in2[0]~output_o $end
$var wire 1 v in2[1]~output_o $end
$var wire 1 w in2[2]~output_o $end
$var wire 1 x in2[3]~output_o $end
$var wire 1 y in1[0]~output_o $end
$var wire 1 z in1[1]~output_o $end
$var wire 1 { in1[2]~output_o $end
$var wire 1 | in1[3]~output_o $end
$var wire 1 } sel[2]~input_o $end
$var wire 1 ~ sel[0]~input_o $end
$var wire 1 !! rst~input_o $end
$var wire 1 "! in5~0_combout $end
$var wire 1 #! stop~input_o $end
$var wire 1 $! in8~0_combout $end
$var wire 1 %! in8[2]~1_combout $end
$var wire 1 &! in8[0]~reg0_q $end
$var wire 1 '! in8~2_combout $end
$var wire 1 (! in8[1]~reg0_q $end
$var wire 1 )! Add0~0_combout $end
$var wire 1 *! in8~3_combout $end
$var wire 1 +! in8[2]~reg0_q $end
$var wire 1 ,! in8~4_combout $end
$var wire 1 -! in8[3]~reg0_q $end
$var wire 1 .! Equal0~0_combout $end
$var wire 1 /! in7~0_combout $end
$var wire 1 0! in7[2]~1_combout $end
$var wire 1 1! in7[0]~reg0_q $end
$var wire 1 2! Add1~0_combout $end
$var wire 1 3! in7~3_combout $end
$var wire 1 4! in7[2]~reg0_q $end
$var wire 1 5! in7~4_combout $end
$var wire 1 6! in7[3]~reg0_q $end
$var wire 1 7! Equal2~0_combout $end
$var wire 1 8! in5[0]~1_combout $end
$var wire 1 9! in5[0]~2_combout $end
$var wire 1 :! in5[0]~reg0_q $end
$var wire 1 ;! out~0_combout $end
$var wire 1 <! out~1_combout $end
$var wire 1 =! en~input_o $end
$var wire 1 >! in3~0_combout $end
$var wire 1 ?! in5~3_combout $end
$var wire 1 @! in5[1]~reg0_q $end
$var wire 1 A! Add3~0_combout $end
$var wire 1 B! in5~4_combout $end
$var wire 1 C! in5[2]~reg0_q $end
$var wire 1 D! Add3~1_combout $end
$var wire 1 E! in5~5_combout $end
$var wire 1 F! in5[3]~reg0_q $end
$var wire 1 G! Equal6~0_combout $end
$var wire 1 H! in6~3_combout $end
$var wire 1 I! in6[2]~1_combout $end
$var wire 1 J! in6[2]~reg0_q $end
$var wire 1 K! in6~0_combout $end
$var wire 1 L! in6[0]~reg0_q $end
$var wire 1 M! in6~2_combout $end
$var wire 1 N! in6[1]~reg0_q $end
$var wire 1 O! Add2~1_combout $end
$var wire 1 P! in6~4_combout $end
$var wire 1 Q! in6[3]~reg0_q $end
$var wire 1 R! Equal4~0_combout $end
$var wire 1 S! in1[2]~0_combout $end
$var wire 1 T! in3[0]~1_combout $end
$var wire 1 U! in3[0]~reg0_q $end
$var wire 1 V! in4~0_combout $end
$var wire 1 W! in4[0]~1_combout $end
$var wire 1 X! in4[0]~reg0_q $end
$var wire 1 Y! sel[1]~input_o $end
$var wire 1 Z! in1~3_combout $end
$var wire 1 [! in3~2_combout $end
$var wire 1 \! in3[1]~reg0_q $end
$var wire 1 ]! Add5~0_combout $end
$var wire 1 ^! in3~3_combout $end
$var wire 1 _! in3[2]~reg0_q $end
$var wire 1 `! Add5~1_combout $end
$var wire 1 a! in3~4_combout $end
$var wire 1 b! in3[3]~reg0_q $end
$var wire 1 c! Equal10~0_combout $end
$var wire 1 d! in4~2_combout $end
$var wire 1 e! in4[1]~reg0_q $end
$var wire 1 f! Add4~0_combout $end
$var wire 1 g! in4~3_combout $end
$var wire 1 h! in4[2]~reg0_q $end
$var wire 1 i! Equal8~0_combout $end
$var wire 1 j! in1[2]~2_combout $end
$var wire 1 k! in1[2]~6_combout $end
$var wire 1 l! in1[0]~reg0_q $end
$var wire 1 m! out~2_combout $end
$var wire 1 n! out~3_combout $end
$var wire 1 o! out~4_combout $end
$var wire 1 p! in1~8_combout $end
$var wire 1 q! in1[1]~reg0_q $end
$var wire 1 r! in2~4_combout $end
$var wire 1 s! in2[1]~1_combout $end
$var wire 1 t! in2[3]~reg0_q $end
$var wire 1 u! in2~0_combout $end
$var wire 1 v! in2[0]~reg0_q $end
$var wire 1 w! Add6~0_combout $end
$var wire 1 x! in2~3_combout $end
$var wire 1 y! in2[2]~reg0_q $end
$var wire 1 z! in1[2]~1_combout $end
$var wire 1 {! in2~2_combout $end
$var wire 1 |! in2[1]~reg0_q $end
$var wire 1 }! out~7_combout $end
$var wire 1 ~! out~8_combout $end
$var wire 1 !" in7~2_combout $end
$var wire 1 "" in7[1]~reg0_q $end
$var wire 1 #" out~5_combout $end
$var wire 1 $" out~6_combout $end
$var wire 1 %" out~9_combout $end
$var wire 1 &" out~10_combout $end
$var wire 1 '" out~11_combout $end
$var wire 1 (" out~13_combout $end
$var wire 1 )" out~14_combout $end
$var wire 1 *" Add7~0_combout $end
$var wire 1 +" in1~9_combout $end
$var wire 1 ," in1[2]~reg0_q $end
$var wire 1 -" in1[2]~7_combout $end
$var wire 1 ." in1~10_combout $end
$var wire 1 /" in1[3]~reg0_q $end
$var wire 1 0" out~17_combout $end
$var wire 1 1" out~18_combout $end
$var wire 1 2" out~15_combout $end
$var wire 1 3" out~16_combout $end
$var wire 1 4" out~19_combout $end
$var wire 1 5" clk~input_o $end
$var wire 1 6" clk~inputclkctrl_outclk $end
$var wire 1 7" Add4~1_combout $end
$var wire 1 8" in4~4_combout $end
$var wire 1 9" in4[3]~reg0_q $end
$upscope $end
$upscope $end
$enddefinitions $end
#0
$dumpvars
1!
1"
1#
b111 $
1%
0)
0(
0'
0&
0-
0,
0+
0*
01
00
0/
0.
05
04
03
02
09
08
07
06
0=
0<
0;
0:
0A
0@
0?
0>
0E
0D
0C
0B
0I
0H
0G
0F
xJ
0K
1L
xM
1N
1O
1P
1Q
1R
1S
0T
0U
0V
0W
0X
0Y
0Z
0[
0\
0]
0^
0_
0`
0a
0b
0c
0d
0e
0f
0g
0h
0i
0j
0k
0l
0m
0n
0o
0p
0q
0r
0s
0t
0u
0v
0w
0x
0y
0z
0{
0|
1}
1~
1!!
1"!
1#!
1$!
1%!
0&!
0'!
0(!
0)!
0*!
0+!
0,!
0-!
1.!
1/!
00!
01!
02!
03!
04!
05!
06!
17!
08!
09!
0:!
1;!
0<!
1=!
1>!
0?!
0@!
0A!
0B!
0C!
0D!
0E!
0F!
1G!
0H!
0I!
0J!
1K!
0L!
0M!
0N!
0O!
0P!
0Q!
1R!
0S!
0T!
0U!
1V!
0W!
0X!
1Y!
1Z!
0[!
0\!
0]!
0^!
0_!
0`!
0a!
0b!
1c!
0d!
0e!
0f!
0g!
0h!
1i!
0j!
0k!
0l!
1m!
0n!
0o!
0p!
0q!
0r!
0s!
0t!
1u!
0v!
0w!
0x!
0y!
0z!
0{!
0|!
1}!
0~!
0!"
0""
1#"
0$"
0%"
1&"
0'"
0("
0)"
0*"
0+"
0,"
1-"
0."
0/"
10"
01"
12"
03"
04"
15"
16"
07"
08"
09"
$end
#2000
0!
05"
06"
0J
#4000
1!
15"
16"
1J
1&!
1<!
1'!
0$!
1]
1E
1o!
1Y
1I
#6000
0!
05"
06"
0J
#8000
1!
15"
16"
1J
1(!
0&!
1$"
0<!
1$!
1^
0]
1D
0E
1%"
0o!
1Z
0Y
1H
0I
#10000
0!
05"
06"
0J
#12000
1!
15"
16"
1J
1&!
1<!
1)!
0'!
0$!
1]
1E
1*!
1o!
1Y
1I
#14000
0!
05"
06"
0J
#16000
1!
15"
16"
1J
1+!
0(!
0&!
1'"
0R
0$"
0<!
1$!
1_
0^
0]
1C
0D
0E
1)"
0%"
0o!
1[
0Z
0Y
1G
0H
0I
#18000
0!
05"
06"
0J
#20000
1!
15"
16"
1J
1&!
1<!
1'!
0$!
1R
1]
1E
1o!
1Y
1I
#22000
0!
05"
06"
0J
#24000
1!
15"
16"
1J
1(!
0&!
1$"
0<!
1$!
1^
0]
1D
0E
1%"
0o!
1Z
0Y
1H
0I
#26000
0!
05"
06"
0J
#28000
1!
15"
16"
1J
1&!
1<!
0)!
0'!
0$!
1V
1]
1E
0*!
1,!
1o!
1Y
1I
#30000
0!
05"
06"
0J
#32000
1!
15"
16"
1J
1-!
0+!
0(!
0&!
13"
0'"
0$"
0<!
1$!
1`
0_
0^
0]
1B
0C
0D
0E
14"
0)"
0%"
0o!
1\
0[
0Z
0Y
1F
0G
0H
0I
#34000
0!
05"
06"
0J
#36000
1!
15"
16"
1J
1&!
1<!
0.!
1'!
0$!
1]
1E
10!
0,!
0'!
1o!
1Y
1I
#38000
0!
05"
06"
0J
#40000
1!
15"
16"
1J
11!
0-!
0&!
1!"
0/!
03"
1.!
0V
0<!
1$!
1a
0`
0]
1A
0B
0E
00!
04"
0o!
0\
0Y
0F
0I
#42000
0!
05"
06"
0J
#44000
1!
15"
16"
1J
1&!
1<!
1'!
0$!
1]
1E
1o!
1Y
1I
#46000
0!
05"
06"
0J
#48000
1!
15"
16"
1J
1(!
0&!
1$"
0<!
1$!
1^
0]
1D
0E
1%"
0o!
1Z
0Y
1H
0I
#50000
0!
05"
06"
0J
#52000
1!
15"
16"
1J
1&!
1<!
1)!
0'!
0$!
1]
1E
1*!
1o!
1Y
1I
#54000
0!
05"
06"
0J
#56000
1!
15"
16"
1J
1+!
0(!
0&!
1'"
0R
0$"
0<!
1$!
1_
0^
0]
1C
0D
0E
1)"
0%"
0o!
1[
0Z
0Y
1G
0H
0I
#58000
0!
05"
06"
0J
#60000
1!
15"
16"
1J
1&!
1<!
1'!
0$!
1R
1]
1E
1o!
1Y
1I
#62000
0!
05"
06"
0J
#64000
1!
15"
16"
1J
1(!
0&!
1$"
0<!
1$!
1^
0]
1D
0E
1%"
0o!
1Z
0Y
1H
0I
#66000
0!
05"
06"
0J
#68000
1!
15"
16"
1J
1&!
1<!
0)!
0'!
0$!
1V
1]
1E
0*!
1,!
1o!
1Y
1I
#70000
0!
05"
06"
0J
#72000
1!
15"
16"
1J
1-!
0+!
0(!
0&!
13"
0'"
0$"
0<!
1$!
1`
0_
0^
0]
1B
0C
0D
0E
14"
0)"
0%"
0o!
1\
0[
0Z
0Y
1F
0G
0H
0I
#74000
0!
05"
06"
0J
#76000
1!
15"
16"
1J
1&!
1<!
0.!
1'!
0$!
1]
1E
10!
0,!
0'!
1o!
1Y
1I
#78000
0!
05"
06"
0J
#80000
1!
15"
16"
1J
1""
01!
0-!
0&!
1/!
03"
1.!
0V
0<!
1$!
1b
0a
0`
0]
1@
0A
0B
0E
00!
04"
0o!
0\
0Y
0F
0I
#82000
0!
05"
06"
0J
#84000
1!
15"
16"
1J
1&!
1<!
1'!
0$!
1]
1E
1o!
1Y
1I
#86000
0!
05"
06"
0J
#88000
1!
15"
16"
1J
1(!
0&!
1$"
0<!
1$!
1^
0]
1D
0E
1%"
0o!
1Z
0Y
1H
0I
#90000
0!
05"
06"
0J
#92000
1!
15"
16"
1J
1&!
1<!
1)!
0'!
0$!
1]
1E
1*!
1o!
1Y
1I
#94000
0!
05"
06"
0J
#96000
1!
15"
16"
1J
1+!
0(!
0&!
1'"
0R
0$"
0<!
1$!
1_
0^
0]
1C
0D
0E
1)"
0%"
0o!
1[
0Z
0Y
1G
0H
0I
#98000
0!
05"
06"
0J
#100000
1!
15"
16"
1J
1&!
1<!
1'!
0$!
1R
1]
1E
1o!
1Y
1I
#102000
0!
05"
06"
0J
#104000
1!
15"
16"
1J
1(!
0&!
1$"
0<!
1$!
1^
0]
1D
0E
1%"
0o!
1Z
0Y
1H
0I
#106000
0!
05"
06"
0J
#108000
1!
15"
16"
1J
1&!
1<!
0)!
0'!
0$!
1V
1]
1E
0*!
1,!
1o!
1Y
1I
#110000
0!
05"
06"
0J
#112000
1!
15"
16"
1J
1-!
0+!
0(!
0&!
13"
0'"
0$"
0<!
1$!
1`
0_
0^
0]
1B
0C
0D
0E
14"
0)"
0%"
0o!
1\
0[
0Z
0Y
1F
0G
0H
0I
#114000
0!
05"
06"
0J
#116000
1!
15"
16"
1J
1&!
1<!
0.!
1'!
0$!
1]
1E
10!
0,!
0'!
1o!
1Y
1I
#118000
0!
05"
06"
0J
#120000
1!
15"
16"
1J
11!
0-!
0&!
0!"
12!
0/!
03"
1.!
0V
0<!
1$!
1a
0`
0]
1A
0B
0E
13!
00!
04"
0o!
0\
0Y
0F
0I
#122000
0!
05"
06"
0J
#124000
1!
15"
16"
1J
1&!
1<!
1'!
0$!
1]
1E
1o!
1Y
1I
#126000
0!
05"
06"
0J
#128000
1!
15"
16"
1J
1(!
0&!
1$"
0<!
1$!
1^
0]
1D
0E
1%"
0o!
1Z
0Y
1H
0I
#130000
0!
05"
06"
0J
#132000
1!
15"
16"
1J
1&!
1<!
1)!
0'!
0$!
1]
1E
1*!
1o!
1Y
1I
#134000
0!
05"
06"
0J
#136000
1!
15"
16"
1J
1+!
0(!
0&!
1'"
0R
0$"
0<!
1$!
1_
0^
0]
1C
0D
0E
1)"
0%"
0o!
1[
0Z
0Y
1G
0H
0I
#138000
0!
05"
06"
0J
#140000
1!
15"
16"
1J
1&!
1<!
1'!
0$!
1R
1]
1E
1o!
1Y
1I
#142000
0!
05"
06"
0J
#144000
1!
15"
16"
1J
1(!
0&!
1$"
0<!
1$!
1^
0]
1D
0E
1%"
0o!
1Z
0Y
1H
0I
#146000
0!
05"
06"
0J
#148000
1!
15"
16"
1J
1&!
1<!
0)!
0'!
0$!
1V
1]
1E
0*!
1,!
1o!
1Y
1I
#150000
0!
05"
06"
0J
#152000
1!
15"
16"
1J
1-!
0+!
0(!
0&!
13"
0'"
0$"
0<!
1$!
1`
0_
0^
0]
1B
0C
0D
0E
14"
0)"
0%"
0o!
1\
0[
0Z
0Y
1F
0G
0H
0I
#154000
0!
05"
06"
0J
#156000
1!
15"
16"
1J
1&!
1<!
0.!
1'!
0$!
1]
1E
10!
0,!
0'!
1o!
1Y
1I
#158000
0!
05"
06"
0J
#160000
1!
15"
16"
1J
0""
14!
01!
0-!
0&!
1/!
03"
1.!
0V
0<!
1$!
0b
1c
0a
0`
0]
0@
1?
0A
0B
0E
00!
04"
0o!
0\
0Y
0F
0I
#162000
0!
05"
06"
0J
#164000
1!
15"
16"
1J
1&!
1<!
1'!
0$!
1]
1E
1o!
1Y
1I
#166000
0!
05"
06"
0J
#168000
1!
15"
16"
1J
1(!
0&!
1$"
0<!
1$!
1^
0]
1D
0E
1%"
0o!
1Z
0Y
1H
0I
#170000
0!
05"
06"
0J
#172000
1!
15"
16"
1J
1&!
1<!
1)!
0'!
0$!
1]
1E
1*!
1o!
1Y
1I
#174000
0!
05"
06"
0J
#176000
1!
15"
16"
1J
1+!
0(!
0&!
1'"
0R
0$"
0<!
1$!
1_
0^
0]
1C
0D
0E
1)"
0%"
0o!
1[
0Z
0Y
1G
0H
0I
#178000
0!
05"
06"
0J
#180000
1!
15"
16"
1J
1&!
1<!
1'!
0$!
1R
1]
1E
1o!
1Y
1I
#182000
0!
05"
06"
0J
#184000
1!
15"
16"
1J
1(!
0&!
1$"
0<!
1$!
1^
0]
1D
0E
1%"
0o!
1Z
0Y
1H
0I
#186000
0!
05"
06"
0J
#188000
1!
15"
16"
1J
1&!
1<!
0)!
0'!
0$!
1V
1]
1E
0*!
1,!
1o!
1Y
1I
#190000
0!
05"
06"
0J
#192000
1!
15"
16"
1J
1-!
0+!
0(!
0&!
13"
0'"
0$"
0<!
1$!
1`
0_
0^
0]
1B
0C
0D
0E
14"
0)"
0%"
0o!
1\
0[
0Z
0Y
1F
0G
0H
0I
#194000
0!
05"
06"
0J
#196000
1!
15"
16"
1J
1&!
1<!
0.!
1'!
0$!
1]
1E
10!
0,!
0'!
1o!
1Y
1I
#198000
0!
05"
06"
0J
#200000
1!
15"
16"
1J
11!
0-!
0&!
1!"
0/!
03"
1.!
0V
0<!
1$!
1a
0`
0]
1A
0B
0E
00!
04"
0o!
0\
0Y
0F
0I
#202000
0!
05"
06"
0J
#204000
1!
15"
16"
1J
1&!
1<!
1'!
0$!
1]
1E
1o!
1Y
1I
#206000
0!
05"
06"
0J
#208000
1!
15"
16"
1J
1(!
0&!
1$"
0<!
1$!
1^
0]
1D
0E
1%"
0o!
1Z
0Y
1H
0I
#210000
0!
05"
06"
0J
#212000
1!
15"
16"
1J
1&!
1<!
1)!
0'!
0$!
1]
1E
1*!
1o!
1Y
1I
#214000
0!
05"
06"
0J
#216000
1!
15"
16"
1J
1+!
0(!
0&!
1'"
0R
0$"
0<!
1$!
1_
0^
0]
1C
0D
0E
1)"
0%"
0o!
1[
0Z
0Y
1G
0H
0I
#218000
0!
05"
06"
0J
#220000
1!
15"
16"
1J
1&!
1<!
1'!
0$!
1R
1]
1E
1o!
1Y
1I
#222000
0!
05"
06"
0J
#224000
1!
15"
16"
1J
1(!
0&!
1$"
0<!
1$!
1^
0]
1D
0E
1%"
0o!
1Z
0Y
1H
0I
#226000
0!
05"
06"
0J
#228000
1!
15"
16"
1J
1&!
1<!
0)!
0'!
0$!
1V
1]
1E
0*!
1,!
1o!
1Y
1I
#230000
0!
05"
06"
0J
#232000
1!
15"
16"
1J
1-!
0+!
0(!
0&!
13"
0'"
0$"
0<!
1$!
1`
0_
0^
0]
1B
0C
0D
0E
14"
0)"
0%"
0o!
1\
0[
0Z
0Y
1F
0G
0H
0I
#234000
0!
05"
06"
0J
#236000
1!
15"
16"
1J
1&!
1<!
0.!
1'!
0$!
1]
1E
10!
0,!
0'!
1o!
1Y
1I
#238000
0!
05"
06"
0J
#240000
1!
15"
16"
1J
1""
01!
0-!
0&!
1/!
03"
1.!
0V
0<!
1$!
1b
0a
0`
0]
1@
0A
0B
0E
00!
04"
0o!
0\
0Y
0F
0I
#242000
0!
05"
06"
0J
#244000
1!
15"
16"
1J
1&!
1<!
1'!
0$!
1]
1E
1o!
1Y
1I
#246000
0!
05"
06"
0J
#248000
1!
15"
16"
1J
1(!
0&!
1$"
0<!
1$!
1^
0]
1D
0E
1%"
0o!
1Z
0Y
1H
0I
#250000
0!
05"
06"
0J
#252000
1!
15"
16"
1J
1&!
1<!
1)!
0'!
0$!
1]
1E
1*!
1o!
1Y
1I
#254000
0!
05"
06"
0J
#256000
1!
15"
16"
1J
1+!
0(!
0&!
1'"
0R
0$"
0<!
1$!
1_
0^
0]
1C
0D
0E
1)"
0%"
0o!
1[
0Z
0Y
1G
0H
0I
#258000
0!
05"
06"
0J
#260000
1!
15"
16"
1J
1&!
1<!
1'!
0$!
1R
1]
1E
1o!
1Y
1I
#262000
0!
05"
06"
0J
#264000
1!
15"
16"
1J
1(!
0&!
1$"
0<!
1$!
1^
0]
1D
0E
1%"
0o!
1Z
0Y
1H
0I
#266000
0!
05"
06"
0J
#268000
1!
15"
16"
1J
1&!
1<!
0)!
0'!
0$!
1V
1]
1E
0*!
1,!
1o!
1Y
1I
#270000
0!
05"
06"
0J
#272000
1!
15"
16"
1J
1-!
0+!
0(!
0&!
13"
0'"
0$"
0<!
1$!
1`
0_
0^
0]
1B
0C
0D
0E
14"
0)"
0%"
0o!
1\
0[
0Z
0Y
1F
0G
0H
0I
#274000
0!
05"
06"
0J
#276000
1!
15"
16"
1J
1&!
1<!
0.!
1'!
0$!
1]
1E
10!
0,!
0'!
1o!
1Y
1I
#278000
0!
05"
06"
0J
#280000
1!
15"
16"
1J
11!
0-!
0&!
0!"
02!
0/!
1U
03"
1.!
0V
0<!
1$!
1a
0`
0]
1A
0B
0E
03!
15!
00!
04"
0o!
0\
0Y
0F
0I
#282000
0!
05"
06"
0J
#284000
1!
15"
16"
1J
1&!
1<!
1'!
0$!
1]
1E
1o!
1Y
1I
#286000
0!
05"
06"
0J
#288000
1!
15"
16"
1J
1(!
0&!
1$"
0<!
1$!
1^
0]
1D
0E
1%"
0o!
1Z
0Y
1H
0I
#290000
0!
05"
06"
0J
#292000
1!
15"
16"
1J
1&!
1<!
1)!
0'!
0$!
1]
1E
1*!
1o!
1Y
1I
#294000
0!
05"
06"
0J
#296000
1!
15"
16"
1J
1+!
0(!
0&!
1'"
0R
0$"
0<!
1$!
1_
0^
0]
1C
0D
0E
1)"
0%"
0o!
1[
0Z
0Y
1G
0H
0I
#298000
0!
05"
06"
0J
#300000
1!
15"
16"
1J
1&!
1<!
1'!
0$!
1R
1]
1E
1o!
1Y
1I
#302000
0!
05"
06"
0J
#304000
1!
15"
16"
1J
1(!
0&!
1$"
0<!
1$!
1^
0]
1D
0E
1%"
0o!
1Z
0Y
1H
0I
#306000
0!
05"
06"
0J
#308000
1!
15"
16"
1J
1&!
1<!
0)!
0'!
0$!
1V
1]
1E
0*!
1,!
1o!
1Y
1I
#310000
0!
05"
06"
0J
#312000
1!
15"
16"
1J
1-!
0+!
0(!
0&!
13"
0'"
0$"
0<!
1$!
1`
0_
0^
0]
1B
0C
0D
0E
14"
0)"
0%"
0o!
1\
0[
0Z
0Y
1F
0G
0H
0I
#314000
0!
05"
06"
0J
#316000
1!
15"
16"
1J
1&!
1<!
0.!
1'!
0$!
1]
1E
10!
0,!
0'!
1o!
1Y
1I
#318000
0!
05"
06"
0J
#320000
1!
15"
16"
1J
0""
16!
04!
01!
0-!
0&!
1/!
03"
1.!
0V
0<!
1$!
0b
1d
0c
0a
0`
0]
0@
1>
0?
0A
0B
0E
00!
04"
0o!
0\
0Y
0F
0I
#322000
0!
05"
06"
0J
#324000
1!
15"
16"
1J
1&!
1<!
1'!
0$!
1]
1E
1o!
1Y
1I
#326000
0!
05"
06"
0J
#328000
1!
15"
16"
1J
1(!
0&!
1$"
0<!
1$!
1^
0]
1D
0E
1%"
0o!
1Z
0Y
1H
0I
#330000
0!
05"
06"
0J
#332000
1!
15"
16"
1J
1&!
1<!
1)!
0'!
0$!
1]
1E
1*!
1o!
1Y
1I
#334000
0!
05"
06"
0J
#336000
1!
15"
16"
1J
1+!
0(!
0&!
1'"
0R
0$"
0<!
1$!
1_
0^
0]
1C
0D
0E
1)"
0%"
0o!
1[
0Z
0Y
1G
0H
0I
#338000
0!
05"
06"
0J
#340000
1!
15"
16"
1J
1&!
1<!
1'!
0$!
1R
1]
1E
1o!
1Y
1I
#342000
0!
05"
06"
0J
#344000
1!
15"
16"
1J
1(!
0&!
1$"
0<!
1$!
1^
0]
1D
0E
1%"
0o!
1Z
0Y
1H
0I
#346000
0!
05"
06"
0J
#348000
1!
15"
16"
1J
1&!
1<!
0)!
0'!
0$!
1V
1]
1E
0*!
1,!
1o!
1Y
1I
#350000
0!
05"
06"
0J
#352000
1!
15"
16"
1J
1-!
0+!
0(!
0&!
13"
0'"
0$"
0<!
1$!
1`
0_
0^
0]
1B
0C
0D
0E
14"
0)"
0%"
0o!
1\
0[
0Z
0Y
1F
0G
0H
0I
#354000
0!
05"
06"
0J
#356000
1!
15"
16"
1J
1&!
1<!
0.!
1'!
0$!
1]
1E
10!
0,!
0'!
1o!
1Y
1I
#358000
0!
05"
06"
0J
#360000
1!
15"
16"
1J
11!
0-!
0&!
1!"
07!
0/!
03"
1.!
0V
0<!
1$!
1a
0`
0]
1A
0B
0E
0!"
05!
00!
04"
0o!
0\
0Y
0F
0I
#362000
0!
05"
06"
0J
#364000
1!
15"
16"
1J
1&!
1<!
1'!
0$!
1]
1E
1o!
1Y
1I
#366000
0!
05"
06"
0J
#368000
1!
15"
16"
1J
1(!
0&!
1$"
0<!
1$!
1^
0]
1D
0E
1%"
0o!
1Z
0Y
1H
0I
#370000
0!
05"
06"
0J
#372000
1!
15"
16"
1J
1&!
1<!
1)!
0'!
0$!
1]
1E
1*!
1o!
1Y
1I
#374000
0!
05"
06"
0J
#376000
1!
15"
16"
1J
1+!
0(!
0&!
1'"
0R
0$"
0<!
1$!
1_
0^
0]
1C
0D
0E
1)"
0%"
0o!
1[
0Z
0Y
1G
0H
0I
#378000
0!
05"
06"
0J
#380000
1!
15"
16"
1J
1&!
1<!
1'!
0$!
1R
1]
1E
1o!
1Y
1I
#382000
0!
05"
06"
0J
#384000
1!
15"
16"
1J
1(!
0&!
1$"
0<!
1$!
1^
0]
1D
0E
1%"
0o!
1Z
0Y
1H
0I
#386000
0!
05"
06"
0J
#388000
1!
15"
16"
1J
1&!
1<!
0)!
0'!
0$!
1V
1]
1E
0*!
1,!
1o!
1Y
1I
#390000
0!
05"
06"
0J
#392000
1!
15"
16"
1J
1-!
0+!
0(!
0&!
13"
0'"
0$"
0<!
1$!
1`
0_
0^
0]
1B
0C
0D
0E
14"
0)"
0%"
0o!
1\
0[
0Z
0Y
1F
0G
0H
0I
#394000
0!
05"
06"
0J
#396000
1!
15"
16"
1J
1&!
1<!
0.!
1'!
0$!
1]
1E
1I!
10!
0,!
0'!
1o!
1Y
1I
#398000
0!
05"
06"
0J
#400000
1!
15"
16"
1J
1L!
06!
01!
0-!
0&!
1M!
0K!
0<!
17!
0U
1/!
03"
1.!
0V
1$!
1e
0d
0a
0`
0]
1=
0>
0A
0B
0E
0I!
00!
0o!
04"
0Y
0\
0I
0F
#402000
0!
05"
06"
0J
#404000
1!
15"
16"
1J
1&!
1<!
1'!
0$!
1]
1E
1o!
1Y
1I
#406000
0!
05"
06"
0J
#408000
1!
15"
16"
1J
1(!
0&!
1$"
0<!
1$!
1^
0]
1D
0E
1%"
0o!
1Z
0Y
1H
0I
#410000
0!
05"
06"
0J
#412000
1!
15"
16"
1J
1&!
1<!
1)!
0'!
0$!
1]
1E
1*!
1o!
1Y
1I
#414000
0!
05"
06"
0J
#416000
1!
15"
16"
1J
1+!
0(!
0&!
1'"
0R
0$"
0<!
1$!
1_
0^
0]
1C
0D
0E
1)"
0%"
0o!
1[
0Z
0Y
1G
0H
0I
#418000
0!
05"
06"
0J
#420000
1!
15"
16"
1J
1&!
1<!
1'!
0$!
1R
1]
1E
1o!
1Y
1I
#422000
0!
05"
06"
0J
#424000
1!
15"
16"
1J
1(!
0&!
1$"
0<!
1$!
1^
0]
1D
0E
1%"
0o!
1Z
0Y
1H
0I
#426000
0!
05"
06"
0J
#428000
1!
15"
16"
1J
1&!
1<!
0)!
0'!
0$!
1V
1]
1E
0*!
1,!
1o!
1Y
1I
#430000
0!
05"
06"
0J
#432000
1!
15"
16"
1J
1-!
0+!
0(!
0&!
13"
0'"
0$"
0<!
1$!
1`
0_
0^
0]
1B
0C
0D
0E
14"
0)"
0%"
0o!
1\
0[
0Z
0Y
1F
0G
0H
0I
#434000
0!
05"
06"
0J
#436000
1!
15"
16"
1J
1&!
1<!
0.!
1'!
0$!
1]
1E
10!
0,!
0'!
1o!
1Y
1I
#438000
0!
05"
06"
0J
