Sophomore/quartus II/e9/simulation/qsim/exp9.msim.vcd
$comment
	File created using the following command:
		vcd file exp9.msim.vcd -direction
$end
$date
	Fri Nov 22 12:19:06 2019
$end
$version
	ModelSim Version 10.1d
$end
$timescale
	1ps
$end
$scope module exp9_vlg_vec_tst $end
$var reg 1 ! clk $end
$var reg 1 " reset $end
$var reg 1 # x $end
$var wire 1 $ current_state [2] $end
$var wire 1 % current_state [1] $end
$var wire 1 & current_state [0] $end
$var wire 1 ' next_state [2] $end
$var wire 1 ( next_state [1] $end
$var wire 1 ) next_state [0] $end
$var wire 1 * z $end
$var wire 1 + sampler $end
$scope module i1 $end
$var wire 1 , gnd $end
$var wire 1 - vcc $end
$var wire 1 . unknown $end
$var tri1 1 / devclrn $end
$var tri1 1 0 devpor $end
$var tri1 1 1 devoe $end
$var wire 1 2 z~output_o $end
$var wire 1 3 current_state[0]~output_o $end
$var wire 1 4 current_state[1]~output_o $end
$var wire 1 5 current_state[2]~output_o $end
$var wire 1 6 next_state[0]~output_o $end
$var wire 1 7 next_state[1]~output_o $end
$var wire 1 8 next_state[2]~output_o $end
$var wire 1 9 clk~input_o $end
$var wire 1 : clk~inputclkctrl_outclk $end
$var wire 1 ; reset~input_o $end
$var wire 1 < x~input_o $end
$var wire 1 = Mux2~0_combout $end
$var wire 1 > current_state~0_combout $end
$var wire 1 ? current_state[0]~reg0_q $end
$var wire 1 @ Mux1~0_combout $end
$var wire 1 A current_state~1_combout $end
$var wire 1 B current_state[1]~reg0_q $end
$var wire 1 C Mux0~0_combout $end
$var wire 1 D current_state~2_combout $end
$var wire 1 E current_state[2]~reg0_q $end
$var wire 1 F z~0_combout $end
$var wire 1 G z~reg0_q $end
$upscope $end
$upscope $end
$enddefinitions $end
#0
$dumpvars
1!
1"
1#
0&
0%
0$
0)
0(
0'
0*
x+
0,
1-
x.
1/
10
11
02
03
04
05
06
07
08
19
1:
1;
1<
0=
0>
0?
0@
0A
0B
1C
0D
0E
0F
0G
$end
#20000
0#
0<
0+
1=
1>
16
1)
#40000
0!
09
0:
1+
#80000
1!
19
1:
0+
1?
13
1&
1@
0=
1A
0>
17
06
1(
0)
#120000
0!
09
0:
1+
#160000
1!
19
1:
0+
1B
0?
14
03
1%
0&
#200000
0!
09
0:
1+
#240000
1!
19
1:
0+
#280000
0!
09
0:
1+
#300000
1#
1<
0+
1=
1>
16
1)
#320000
1!
19
1:
1+
1?
13
1&
0@
0=
0A
0>
07
06
0(
0)
#340000
0#
0<
0+
0C
1D
18
1'
#360000
0!
09
0:
1+
#400000
1!
19
1:
0+
1E
0B
0?
15
04
03
1$
0%
0&
1=
1>
16
1)
#440000
0!
09
0:
1+
#480000
1!
19
1:
0+
1?
13
1&
1@
0=
1A
0>
17
06
1(
0)
#520000
0!
09
0:
1+
#560000
1!
19
1:
0+
1B
0?
1C
14
03
1%
0&
0@
1=
0D
0A
1>
08
07
16
0'
0(
1)
#600000
0!
09
0:
1+
#620000
1#
1<
0+
0C
1@
1D
1A
18
17
1'
1(
#640000
1!
19
1:
1+
1?
1F
1C
13
1&
0@
0=
0D
0A
0>
08
07
06
0'
0(
0)
#660000
0#
0<
0+
0F
1=
1>
16
1)
#680000
0!
09
0:
1+
#720000
1!
19
1:
0+
0E
0B
05
04
0$
0%
1@
0=
1A
0>
17
06
1(
0)
#760000
0!
09
0:
1+
#800000
1!
19
1:
0+
1B
0?
14
03
1%
0&
#840000
0!
09
0:
1+
#880000
1!
19
1:
0+
#920000
0!
09
0:
1+
#940000
1#
1<
0+
1=
1>
16
1)
#960000
1!
19
1:
1+
1?
13
1&
0@
0=
0A
0>
07
06
0(
0)
#980000
0#
0<
0+
0C
1D
18
1'
#1000000
0!
09
0:
1+
#1040000
1!
19
1:
0+
1E
0B
0?
15
04
03
1$
0%
0&
1=
1>
16
1)
#1080000
0!
09
0:
1+
#1120000
1!
19
1:
0+
1?
13
1&
1@
0=
1A
0>
17
06
1(
0)
#1160000
0!
09
0:
1+
#1200000
1!
19
1:
0+
1B
0?
1C
14
03
1%
0&
0@
1=
0D
0A
1>
08
07
16
0'
0(
1)
#1240000
0!
09
0:
1+
#1260000
1#
1<
0+
0C
1@
1D
1A
18
17
1'
1(
#1280000
1!
19
1:
1+
1?
1F
1C
13
1&
0@
0=
0D
0A
0>
08
07
06
0'
0(
0)
#1300000
0#
0<
0+
0F
1=
1>
16
1)
#1320000
0!
09
0:
1+
#1340000
1#
1<
0+
1F
0=
0>
06
0)
#1360000
1!
19
1:
1+
1G
0E
0B
0?
0F
12
05
04
03
1*
0$
0%
0&
#1380000
0#
0<
0+
1=
1>
16
1)
#1400000
0!
09
0:
1+
#1440000
1!
19
1:
0+
0G
1?
02
13
0*
1&
1@
0=
1A
0>
17
06
1(
0)
#1480000
0!
09
0:
1+
