Sophomore/quartus II/1807410102/shiyan 2/1 (2)/simulation/qsim/nambscld.msim.vcd
$comment
	File created using the following command:
		vcd file nambscld.msim.vcd -direction
$end
$date
	Fri Oct 18 15:12:41 2019
$end
$version
	ModelSim Version 10.1d
$end
$timescale
	1ps
$end
$scope module nambscld_vlg_vec_tst $end
$var reg 4 ! data [3:0] $end
$var wire 1 " a $end
$var wire 1 # b $end
$var wire 1 $ c $end
$var wire 1 % d $end
$var wire 1 & e $end
$var wire 1 ' f $end
$var wire 1 ( g $end
$var wire 1 ) sel $end
$var wire 1 * sampler $end
$scope module i1 $end
$var wire 1 + gnd $end
$var wire 1 , vcc $end
$var wire 1 - unknown $end
$var tri1 1 . devclrn $end
$var tri1 1 / devpor $end
$var tri1 1 0 devoe $end
$var wire 1 1 a~output_o $end
$var wire 1 2 b~output_o $end
$var wire 1 3 c~output_o $end
$var wire 1 4 d~output_o $end
$var wire 1 5 e~output_o $end
$var wire 1 6 f~output_o $end
$var wire 1 7 g~output_o $end
$var wire 1 8 sel~output_o $end
$var wire 1 9 data[0]~input_o $end
$var wire 1 : data[2]~input_o $end
$var wire 1 ; data[3]~input_o $end
$var wire 1 < data[1]~input_o $end
$var wire 1 = a~0_combout $end
$var wire 1 > WideOr0~0_combout $end
$var wire 1 ? WideOr1~0_combout $end
$var wire 1 @ WideOr2~0_combout $end
$var wire 1 A WideOr3~0_combout $end
$var wire 1 B WideOr4~0_combout $end
$var wire 1 C WideOr5~0_combout $end
$upscope $end
$upscope $end
$enddefinitions $end
#0
$dumpvars
b0 !
1"
1#
1$
1%
1&
1'
0(
0)
x*
0+
1,
x-
1.
1/
10
11
12
13
14
15
16
07
08
09
0:
0;
0<
0=
0>
0?
0@
0A
0B
0C
$end
#50000
b1 !
19
0*
1B
1A
1@
1=
06
05
04
01
0'
0&
0%
0"
#100000
b11 !
b10 !
09
1<
1*
0A
0@
1?
0=
1C
15
14
03
11
17
1&
1%
0$
1"
1(
#150000
b11 !
19
0*
1A
0?
05
13
0&
1$
#200000
b111 !
b101 !
b100 !
09
0<
1:
1*
0B
1@
1=
16
04
01
1'
0%
0"
#250000
b101 !
19
0*
0@
1>
0=
14
02
11
1%
0#
1"
#300000
b111 !
b110 !
09
1<
1*
0A
15
1&
#350000
b111 !
19
0*
1B
1A
1@
0>
0C
06
05
04
12
07
0'
0&
0%
1#
0(
#400000
b1111 !
b1011 !
b1001 !
b1000 !
09
0<
0:
1;
1*
0B
0A
0@
1C
16
15
14
17
1'
1&
1%
1(
#450000
b1001 !
19
0*
1A
05
0&
#500000
b1011 !
b1010 !
09
1<
1*
0A
1?
1>
15
03
02
1&
0$
0#
#550000
b1011 !
19
0*
#600000
b1111 !
b1101 !
b1100 !
09
0<
1:
1*
#650000
b1101 !
19
0*
#700000
b1111 !
b1110 !
09
1<
1*
#750000
b1111 !
19
0*
#800000
b111 !
b11 !
b1 !
b0 !
09
0<
0:
0;
1*
0?
0>
0C
13
12
07
1$
1#
0(
#850000
b1 !
19
0*
1B
1A
1@
1=
06
05
04
01
0'
0&
0%
0"
#900000
b11 !
b10 !
09
1<
1*
0A
0@
1?
0=
1C
15
14
03
11
17
1&
1%
0$
1"
1(
#950000
b11 !
19
0*
1A
0?
05
13
0&
1$
#1000000
b111 !
b101 !
b100 !
09
0<
1:
1*
0B
1@
1=
16
04
01
1'
0%
0"
#1050000
b101 !
19
0*
0@
1>
0=
14
02
11
1%
0#
1"
#1100000
b111 !
b110 !
09
1<
1*
0A
15
1&
#1150000
b111 !
19
0*
1B
1A
1@
0>
0C
06
05
04
12
07
0'
0&
0%
1#
0(
#1200000
b1111 !
b1011 !
b1001 !
b1000 !
09
0<
0:
1;
1*
0B
0A
0@
1C
16
15
14
17
1'
1&
1%
1(
#1250000
b1001 !
19
0*
1A
05
0&
#1300000
b1011 !
b1010 !
09
1<
1*
0A
1?
1>
15
03
02
1&
0$
0#
#1350000
b1011 !
19
0*
#1400000
b1111 !
b1101 !
b1100 !
09
0<
1:
1*
#1450000
b1101 !
19
0*
#1500000
b1111 !
b1110 !
09
1<
1*
#1550000
b1111 !
19
0*
#1600000
b111 !
b11 !
b1 !
b0 !
09
0<
0:
0;
1*
0?
0>
0C
13
12
07
1$
1#
0(
#1650000
b1 !
19
0*
1B
1A
1@
1=
06
05
04
01
0'
0&
0%
0"
#1700000
b11 !
b10 !
09
1<
1*
0A
0@
1?
0=
1C
15
14
03
11
17
1&
1%
0$
1"
1(
#1750000
b11 !
19
0*
1A
0?
05
13
0&
1$
#1800000
b111 !
b101 !
b100 !
09
0<
1:
1*
0B
1@
1=
16
04
01
1'
0%
0"
#1850000
b101 !
19
0*
0@
1>
0=
14
02
11
1%
0#
1"
#1900000
b111 !
b110 !
09
1<
1*
0A
15
1&
#1950000
b111 !
19
0*
1B
1A
1@
0>
0C
06
05
04
12
07
0'
0&
0%
1#
0(
