Sophomore/quartus II/1807410102/a31111/simulation/qsim/a31.msim.vcd
$comment
	File created using the following command:
		vcd file a31.msim.vcd -direction
$end
$date
	Fri Oct 25 13:54:09 2019
$end
$version
	ModelSim Version 10.1d
$end
$timescale
	1ps
$end
$scope module a31_vlg_vec_tst $end
$var reg 1 ! en $end
$var reg 4 " in1 [3:0] $end
$var reg 4 # in2 [3:0] $end
$var reg 1 $ sel0 $end
$var reg 1 % sel1 $end
$var reg 1 & sel2 $end
$var wire 1 ' a $end
$var wire 1 ( b $end
$var wire 1 ) c $end
$var wire 1 * d $end
$var wire 1 + e $end
$var wire 1 , f $end
$var wire 1 - g $end
$var wire 1 . sel $end
$var wire 1 / sampler $end
$scope module i1 $end
$var wire 1 0 gnd $end
$var wire 1 1 vcc $end
$var wire 1 2 unknown $end
$var tri1 1 3 devclrn $end
$var tri1 1 4 devpor $end
$var tri1 1 5 devoe $end
$var wire 1 6 inst1|out[0]~7_combout $end
$var wire 1 7 sel1~input_o $end
$var wire 1 8 in1[0]~input_o $end
$var wire 1 9 in1[2]~input_o $end
$var wire 1 : a~output_o $end
$var wire 1 ; b~output_o $end
$var wire 1 < c~output_o $end
$var wire 1 = d~output_o $end
$var wire 1 > e~output_o $end
$var wire 1 ? f~output_o $end
$var wire 1 @ g~output_o $end
$var wire 1 A sel~output_o $end
$var wire 1 B in2[3]~input_o $end
$var wire 1 C in1[3]~input_o $end
$var wire 1 D inst1|out[0]~15_combout $end
$var wire 1 E en~input_o $end
$var wire 1 F sel0~input_o $end
$var wire 1 G sel2~input_o $end
$var wire 1 H inst1|out[0]~14_combout $end
$var wire 1 I inst1|out[0]~16_combout $end
$var wire 1 J in2[1]~input_o $end
$var wire 1 K in1[1]~input_o $end
$var wire 1 L inst1|out[2]~3_combout $end
$var wire 1 M inst1|out[2]~17_combout $end
$var wire 1 N inst1|out[1]~10_combout $end
$var wire 1 O in2[2]~input_o $end
$var wire 1 P inst1|out[3]~11_combout $end
$var wire 1 Q inst1|out[1]~12_combout $end
$var wire 1 R inst1|out[1]~13_combout $end
$var wire 1 S inst1|out[3]~6_combout $end
$var wire 1 T in2[0]~input_o $end
$var wire 1 U inst1|out[3]~8_combout $end
$var wire 1 V inst1|out[3]~9_combout $end
$var wire 1 W inst|a~0_combout $end
$var wire 1 X inst|WideOr0~0_combout $end
$var wire 1 Y inst|WideOr1~0_combout $end
$var wire 1 Z inst|WideOr2~0_combout $end
$var wire 1 [ inst|WideOr3~0_combout $end
$var wire 1 \ inst|WideOr4~0_combout $end
$var wire 1 ] inst|WideOr5~0_combout $end
$upscope $end
$upscope $end
$enddefinitions $end
#0
$dumpvars
0!
b1 "
b10 #
0$
0%
0&
1'
0(
0)
1*
1+
1,
1-
0.
x/
00
11
x2
13
14
15
16
07
18
09
1:
0;
0<
1=
1>
1?
1@
0A
0B
0C
0D
0E
0F
0G
1H
1I
1J
0K
0L
1M
0N
0O
1P
1Q
1R
1S
0T
1U
1V
0W
1X
1Y
0Z
0[
0\
1]
$end
#40000
1!
1E
0/
0Q
0M
06
0R
0I
1\
1[
1Z
0Y
0X
1W
0]
0?
0>
0=
1<
1;
0:
0@
0,
0+
0*
1)
1(
0'
0-
#50000
1&
1G
1/
1Q
1L
0H
16
1R
1M
0W
1:
1'
#100000
1%
0&
17
0G
0/
0P
0M
0Q
0L
0\
0Z
1X
0R
1]
1\
1Z
0X
1W
1?
1=
0;
1@
1,
1*
0(
1-
0]
0?
0=
1;
0:
0@
0,
0*
1(
0'
0-
#150000
1&
1G
1/
0S
1L
1H
0V
1I
0\
0[
0Z
0W
1]
1?
1>
1=
1:
1@
1,
1+
1*
1'
1-
#200000
1$
0%
0&
1F
07
0G
0/
0U
1S
1N
1M
06
1Y
1X
0I
1\
0X
0<
0;
0)
0(
0?
1;
0,
1(
#250000
1&
1G
1/
0S
0N
0L
0H
16
0M
0\
0Y
0]
1?
1<
0@
1,
1)
0-
#300000
1%
0&
17
0G
0/
1N
1L
1R
1[
1Z
1W
1]
0>
0=
0:
1@
0+
0*
0'
1-
#350000
1&
1G
1/
1S
0N
0L
1V
0R
1\
0]
0?
0@
0,
0-
#400000
0$
0%
0&
0F
07
0G
0/
1U
1P
1H
06
#450000
1&
1G
1/
1Q
1L
0H
16
1R
1M
0W
1:
1'
#500000
1%
0&
17
0G
0/
0P
0M
0Q
0L
0\
0Z
1X
0R
1]
1\
1Z
0X
1W
1?
1=
0;
1@
1,
1*
0(
1-
0]
0?
0=
1;
0:
0@
0,
0*
1(
0'
0-
#550000
1&
1G
1/
0S
1L
1H
0V
1I
0\
0[
0Z
0W
1]
1?
1>
1=
1:
1@
1,
1+
1*
1'
1-
#600000
1$
0%
0&
1F
07
0G
0/
0U
1S
1N
1M
06
1Y
1X
0I
1\
0X
0<
0;
0)
0(
0?
1;
0,
1(
#650000
1&
1G
1/
0S
0N
0L
0H
16
0M
0\
0Y
0]
1?
1<
0@
1,
1)
0-
#700000
1%
0&
17
0G
0/
1N
1L
1R
1[
1Z
1W
1]
0>
0=
0:
1@
0+
0*
0'
1-
#750000
1&
1G
1/
1S
0N
0L
1V
0R
1\
0]
0?
0@
0,
0-
#800000
0$
0%
0&
0F
07
0G
0/
1U
1P
1H
06
#850000
1&
1G
1/
1Q
1L
0H
16
1R
1M
0W
1:
1'
#900000
1%
0&
17
0G
0/
0P
0M
0Q
0L
0\
0Z
1X
0R
1]
1\
1Z
0X
1W
1?
1=
0;
1@
1,
1*
0(
1-
0]
0?
0=
1;
0:
0@
0,
0*
1(
0'
0-
#950000
1&
1G
1/
0S
1L
1H
0V
1I
0\
0[
0Z
0W
1]
1?
1>
1=
1:
1@
1,
1+
1*
1'
1-
#1000000
1$
0%
0&
1F
07
0G
0/
0U
1S
1N
1M
06
1Y
1X
0I
1\
0X
0<
0;
0)
0(
0?
1;
0,
1(
#1050000
1&
1G
1/
0S
0N
0L
0H
16
0M
0\
0Y
0]
1?
1<
0@
1,
1)
0-
#1100000
1%
0&
17
0G
0/
1N
1L
1R
1[
1Z
1W
1]
0>
0=
0:
1@
0+
0*
0'
1-
#1150000
1&
1G
1/
1S
0N
0L
1V
0R
1\
0]
0?
0@
0,
0-
#1200000
0$
0%
0&
0F
07
0G
0/
1U
1P
1H
06
#1250000
1&
1G
1/
1Q
1L
0H
16
1R
1M
0W
1:
1'
#1300000
1%
0&
17
0G
0/
0P
0M
0Q
0L
0\
0Z
1X
0R
1]
1\
1Z
0X
1W
1?
1=
0;
1@
1,
1*
0(
1-
0]
0?
0=
1;
0:
0@
0,
0*
1(
0'
0-
#1350000
1&
1G
1/
0S
1L
1H
0V
1I
0\
0[
0Z
0W
1]
1?
1>
1=
1:
1@
1,
1+
1*
1'
1-
#1400000
1$
0%
0&
1F
07
0G
0/
0U
1S
1N
1M
06
1Y
1X
0I
1\
0X
0<
0;
0)
0(
0?
1;
0,
1(
#1450000
1&
1G
1/
0S
0N
0L
0H
16
0M
0\
0Y
0]
1?
1<
0@
1,
1)
0-
#1500000
1%
0&
17
0G
0/
1N
1L
1R
1[
1Z
1W
1]
0>
0=
0:
1@
0+
0*
0'
1-
#1550000
1&
1G
1/
1S
0N
0L
1V
0R
1\
0]
0?
0@
0,
0-
#1600000
0$
0%
0&
0F
07
0G
0/
1U
1P
1H
06
#1650000
1&
1G
1/
1Q
1L
0H
16
1R
1M
0W
1:
1'
#1700000
1%
0&
17
0G
0/
0P
0M
0Q
0L
0\
0Z
1X
0R
1]
1\
1Z
0X
1W
1?
1=
0;
1@
1,
1*
0(
1-
0]
0?
0=
1;
0:
0@
0,
0*
1(
0'
0-
#1750000
1&
1G
1/
0S
1L
1H
0V
1I
0\
0[
0Z
0W
1]
1?
1>
1=
1:
1@
1,
1+
1*
1'
1-
#1800000
1$
0%
0&
1F
07
0G
0/
0U
1S
1N
1M
06
1Y
1X
0I
1\
0X
0<
0;
0)
0(
0?
1;
0,
1(
#1850000
1&
1G
1/
0S
0N
0L
0H
16
0M
0\
0Y
0]
1?
1<
0@
1,
1)
0-
#1900000
1%
0&
17
0G
0/
1N
1L
1R
1[
1Z
1W
1]
0>
0=
0:
1@
0+
0*
0'
1-
#1950000
1&
1G
1/
1S
0N
0L
1V
0R
1\
0]
0?
0@
0,
0-
