Sophomore/数字逻辑实验/final/simulation/qsim/final.msim.vcd
$comment
	File created using the following command:
		vcd file final.msim.vcd -direction
$end
$date
	Fri Dec 20 12:03:28 2019
$end
$version
	ModelSim Version 10.1d
$end
$timescale
	1ps
$end
$scope module t2_vlg_vec_tst $end
$var reg 1 ! clk $end
$var reg 1 " reset $end
$var reg 6 # set_call [5:0] $end
$var reg 4 $ set_dest [3:0] $end
$var wire 1 % ce $end
$var wire 1 & cuir_Floor [1] $end
$var wire 1 ' cuir_Floor [0] $end
$var wire 1 ( get_call [5] $end
$var wire 1 ) get_call [4] $end
$var wire 1 * get_call [3] $end
$var wire 1 + get_call [2] $end
$var wire 1 , get_call [1] $end
$var wire 1 - get_call [0] $end
$var wire 1 . get_dest [3] $end
$var wire 1 / get_dest [2] $end
$var wire 1 0 get_dest [1] $end
$var wire 1 1 get_dest [0] $end
$var wire 1 2 inc_Floor $end
$var wire 1 3 out_state_dir $end
$var wire 1 4 out_state_run $end
$var wire 1 5 red_Floor $end
$var wire 1 6 result $end
$var wire 1 7 rst $end
$var wire 1 8 state [3] $end
$var wire 1 9 state [2] $end
$var wire 1 : state [1] $end
$var wire 1 ; state [0] $end
$var wire 1 < stop_r $end
$var wire 1 = up_d $end
$var wire 1 > sampler $end
$scope module i1 $end
$var wire 1 ? gnd $end
$var wire 1 @ vcc $end
$var wire 1 A unknown $end
$var tri1 1 B devclrn $end
$var tri1 1 C devpor $end
$var tri1 1 D devoe $end
$var wire 1 E inst|inst1|count[0]~32_combout $end
$var wire 1 F inst|inst1|count[0]~33 $end
$var wire 1 G inst|inst1|count[1]~34_combout $end
$var wire 1 H inst|inst1|count[1]~35 $end
$var wire 1 I inst|inst1|count[2]~36_combout $end
$var wire 1 J inst|inst1|count[2]~37 $end
$var wire 1 K inst|inst1|count[3]~38_combout $end
$var wire 1 L inst|inst1|count[3]~39 $end
$var wire 1 M inst|inst1|count[4]~40_combout $end
$var wire 1 N inst|inst1|count[4]~41 $end
$var wire 1 O inst|inst1|count[5]~42_combout $end
$var wire 1 P inst|inst1|count[5]~43 $end
$var wire 1 Q inst|inst1|count[6]~44_combout $end
$var wire 1 R inst|inst1|count[6]~45 $end
$var wire 1 S inst|inst1|count[7]~46_combout $end
$var wire 1 T inst|inst1|count[7]~47 $end
$var wire 1 U inst|inst1|count[8]~48_combout $end
$var wire 1 V inst|inst1|count[8]~49 $end
$var wire 1 W inst|inst1|count[9]~50_combout $end
$var wire 1 X inst|inst1|count[9]~51 $end
$var wire 1 Y inst|inst1|count[10]~52_combout $end
$var wire 1 Z inst|inst1|count[10]~53 $end
$var wire 1 [ inst|inst1|count[11]~54_combout $end
$var wire 1 \ inst|inst1|count[11]~55 $end
$var wire 1 ] inst|inst1|count[12]~56_combout $end
$var wire 1 ^ inst|inst1|count[12]~57 $end
$var wire 1 _ inst|inst1|count[13]~58_combout $end
$var wire 1 ` inst|inst1|count[13]~59 $end
$var wire 1 a inst|inst1|count[14]~60_combout $end
$var wire 1 b inst|inst1|count[14]~61 $end
$var wire 1 c inst|inst1|count[15]~62_combout $end
$var wire 1 d inst|inst1|count[15]~63 $end
$var wire 1 e inst|inst1|count[16]~64_combout $end
$var wire 1 f inst|inst1|count[16]~65 $end
$var wire 1 g inst|inst1|count[17]~66_combout $end
$var wire 1 h inst|inst1|count[17]~67 $end
$var wire 1 i inst|inst1|count[18]~68_combout $end
$var wire 1 j inst|inst1|count[18]~69 $end
$var wire 1 k inst|inst1|count[19]~70_combout $end
$var wire 1 l inst|inst1|count[19]~71 $end
$var wire 1 m inst|inst1|count[20]~72_combout $end
$var wire 1 n inst|inst1|count[20]~73 $end
$var wire 1 o inst|inst1|count[21]~74_combout $end
$var wire 1 p inst|inst1|count[21]~75 $end
$var wire 1 q inst|inst1|count[22]~76_combout $end
$var wire 1 r inst|inst1|count[22]~77 $end
$var wire 1 s inst|inst1|count[23]~78_combout $end
$var wire 1 t inst|inst1|count[23]~79 $end
$var wire 1 u inst|inst1|count[24]~80_combout $end
$var wire 1 v inst|inst1|count[24]~81 $end
$var wire 1 w inst|inst1|count[25]~82_combout $end
$var wire 1 x inst|inst1|count[25]~83 $end
$var wire 1 y inst|inst1|count[26]~84_combout $end
$var wire 1 z inst|inst1|count[26]~85 $end
$var wire 1 { inst|inst1|count[27]~86_combout $end
$var wire 1 | inst|inst1|count[27]~87 $end
$var wire 1 } inst|inst1|count[28]~88_combout $end
$var wire 1 ~ inst|inst1|count[28]~89 $end
$var wire 1 !! inst|inst1|count[29]~90_combout $end
$var wire 1 "! inst|inst1|count[29]~91 $end
$var wire 1 #! inst|inst1|count[30]~92_combout $end
$var wire 1 $! inst|inst1|count[30]~93 $end
$var wire 1 %! inst|inst1|count[31]~94_combout $end
$var wire 1 &! inst3|Mux4~13_combout $end
$var wire 1 '! inst3|Mux4~14_combout $end
$var wire 1 (! inst3|Mux4~15_combout $end
$var wire 1 )! inst|inst|Mux0~3_combout $end
$var wire 1 *! inst1|inst5|floor_clk~combout $end
$var wire 1 +! inst1|inst5|red~0_combout $end
$var wire 1 ,! inst|inst1|consignal~0_combout $end
$var wire 1 -! inst|inst1|consignal~1_combout $end
$var wire 1 .! inst|inst1|consignal~2_combout $end
$var wire 1 /! inst|inst1|consignal~3_combout $end
$var wire 1 0! inst|inst1|consignal~4_combout $end
$var wire 1 1! inst|inst1|consignal~5_combout $end
$var wire 1 2! inst|inst1|consignal~6_combout $end
$var wire 1 3! inst|inst1|consignal~7_combout $end
$var wire 1 4! inst|inst1|consignal~8_combout $end
$var wire 1 5! inst|inst1|consignal~9_combout $end
$var wire 1 6! inst|inst1|consignal~10_combout $end
$var wire 1 7! inst|inst|WideOr8~0_combout $end
$var wire 1 8! inst|inst|WideOr6~0_combout $end
$var wire 1 9! inst|inst|ce_Count~combout $end
$var wire 1 :! ~GND~combout $end
$var wire 1 ;! clk~input_o $end
$var wire 1 <! set_call[2]~input_o $end
$var wire 1 =! clk~inputclkctrl_outclk $end
$var wire 1 >! inc_Floor~output_o $end
$var wire 1 ?! red_Floor~output_o $end
$var wire 1 @! ce~output_o $end
$var wire 1 A! up_d~output_o $end
$var wire 1 B! stop_r~output_o $end
$var wire 1 C! rst~output_o $end
$var wire 1 D! out_state_run~output_o $end
$var wire 1 E! out_state_dir~output_o $end
$var wire 1 F! result~output_o $end
$var wire 1 G! cuir_Floor[1]~output_o $end
$var wire 1 H! cuir_Floor[0]~output_o $end
$var wire 1 I! get_call[5]~output_o $end
$var wire 1 J! get_call[4]~output_o $end
$var wire 1 K! get_call[3]~output_o $end
$var wire 1 L! get_call[2]~output_o $end
$var wire 1 M! get_call[1]~output_o $end
$var wire 1 N! get_call[0]~output_o $end
$var wire 1 O! get_dest[3]~output_o $end
$var wire 1 P! get_dest[2]~output_o $end
$var wire 1 Q! get_dest[1]~output_o $end
$var wire 1 R! get_dest[0]~output_o $end
$var wire 1 S! state[3]~output_o $end
$var wire 1 T! state[2]~output_o $end
$var wire 1 U! state[1]~output_o $end
$var wire 1 V! state[0]~output_o $end
$var wire 1 W! inst|inst1|consignal~10_wirecell_combout $end
$var wire 1 X! inst|inst1|consignal~q $end
$var wire 1 Y! inst|inst|Mux1~0_combout $end
$var wire 1 Z! inst|inst|Mux0~0_combout $end
$var wire 1 [! inst|inst|Mux1~1_combout $end
$var wire 1 \! inst|inst|Mux1~2_combout $end
$var wire 1 ]! reset~input_o $end
$var wire 1 ^! reset~inputclkctrl_outclk $end
$var wire 1 _! inst|inst|Mux3~1_combout $end
$var wire 1 `! inst|inst|Mux3~0_combout $end
$var wire 1 a! inst|inst|Mux3~2_combout $end
$var wire 1 b! inst|inst|Mux3~3_combout $end
$var wire 1 c! inst|inst|Mux5~0_combout $end
$var wire 1 d! inst|inst|Mux6~0_combout $end
$var wire 1 e! inst|inst|Mux6~0clkctrl_outclk $end
$var wire 1 f! inst|inst|Decoder0~2_combout $end
$var wire 1 g! inst|inst|Decoder0~3_combout $end
$var wire 1 h! inst|inst|rst~combout $end
$var wire 1 i! inst|inst|rst~clkctrl_outclk $end
$var wire 1 j! inst1|inst5|inc~combout $end
$var wire 1 k! inst1|inst5|cur_Floor[0]~2_combout $end
$var wire 1 l! inst1|inst5|red~combout $end
$var wire 1 m! inst1|inst5|cur_Floor[1]~0_combout $end
$var wire 1 n! inst1|inst5|Add0~0_combout $end
$var wire 1 o! set_dest[0]~input_o $end
$var wire 1 p! inst2|inst|get_dest[0]~7_combout $end
$var wire 1 q! inst2|inst|get_dest[0]~6_combout $end
$var wire 1 r! inst|inst|WideOr1~0_combout $end
$var wire 1 s! inst|inst|WideOr3~0_combout $end
$var wire 1 t! inst|inst|ce~combout $end
$var wire 1 u! inst2|inst1|get_call[2]~7_combout $end
$var wire 1 v! inst2|inst1|get_call[2]~6_combout $end
$var wire 1 w! inst2|inst|get_dest[1]~5_combout $end
$var wire 1 x! set_dest[1]~input_o $end
$var wire 1 y! inst2|inst|get_dest[1]~4_combout $end
$var wire 1 z! inst3|always0~0_combout $end
$var wire 1 {! inst|inst|Mux4~0_combout $end
$var wire 1 |! set_call[1]~input_o $end
$var wire 1 }! inst2|inst1|get_call[1]~9_combout $end
$var wire 1 ~! inst2|inst1|get_call[1]~8_combout $end
$var wire 1 !" inst3|Mux4~0_combout $end
$var wire 1 "" inst3|Mux4~1_combout $end
$var wire 1 #" inst3|Mux4~2_combout $end
$var wire 1 $" set_dest[3]~input_o $end
$var wire 1 %" inst2|inst|get_dest[3]~1_combout $end
$var wire 1 &" inst2|inst|get_dest[3]~0_combout $end
$var wire 1 '" inst3|Mux4~3_combout $end
$var wire 1 (" inst2|inst|get_dest[2]~3_combout $end
$var wire 1 )" set_dest[2]~input_o $end
$var wire 1 *" inst2|inst|get_dest[2]~2_combout $end
$var wire 1 +" set_call[4]~input_o $end
$var wire 1 ," inst2|inst1|get_call[4]~3_combout $end
$var wire 1 -" inst2|inst1|get_call[4]~2_combout $end
$var wire 1 ." inst3|Mux4~4_combout $end
$var wire 1 /" inst3|Mux4~5_combout $end
$var wire 1 0" inst3|Mux4~6_combout $end
$var wire 1 1" inst3|Mux4~9_combout $end
$var wire 1 2" inst2|inst1|get_call[0]~11_combout $end
$var wire 1 3" set_call[0]~input_o $end
$var wire 1 4" inst2|inst1|get_call[0]~10_combout $end
$var wire 1 5" inst3|Mux4~10_combout $end
$var wire 1 6" set_call[5]~input_o $end
$var wire 1 7" inst2|inst1|get_call[5]~1_combout $end
$var wire 1 8" inst2|inst1|get_call[5]~0_combout $end
$var wire 1 9" inst2|inst1|get_call[3]~5_combout $end
$var wire 1 :" set_call[3]~input_o $end
$var wire 1 ;" inst2|inst1|get_call[3]~4_combout $end
$var wire 1 <" inst3|Mux4~7_combout $end
$var wire 1 =" inst3|Mux4~8_combout $end
$var wire 1 >" inst3|Mux4~11_combout $end
$var wire 1 ?" inst3|Mux4~12_combout $end
$var wire 1 @" inst3|Mux4~16_combout $end
$var wire 1 A" inst3|result~q $end
$var wire 1 B" inst|inst|Mux0~1_combout $end
$var wire 1 C" inst|inst|Mux0~2_combout $end
$var wire 1 D" inst|inst|Mux0~4_combout $end
$var wire 1 E" inst|inst|Mux2~0_combout $end
$var wire 1 F" inst|inst|Mux2~1_combout $end
$var wire 1 G" inst|inst|Decoder0~0_combout $end
$var wire 1 H" inst|inst|WideOr11~0_combout $end
$var wire 1 I" inst|inst|inc_Floor~combout $end
$var wire 1 J" inst|inst|WideOr9~0_combout $end
$var wire 1 K" inst|inst|Decoder0~1_combout $end
$var wire 1 L" inst|inst|red_Floor~combout $end
$var wire 1 M" inst|inst|up_d~0_combout $end
$var wire 1 N" inst|inst|up_d~combout $end
$var wire 1 O" inst|inst|WideOr4~0_combout $end
$var wire 1 P" inst|inst|stop_r~0_combout $end
$var wire 1 Q" inst|inst|stop_r~combout $end
$var wire 1 R" inst1|inst|always0~0_combout $end
$var wire 1 S" inst1|inst1|always0~0_combout $end
$var wire 1 T" inst2|inst1|get_call [5] $end
$var wire 1 U" inst2|inst1|get_call [4] $end
$var wire 1 V" inst2|inst1|get_call [3] $end
$var wire 1 W" inst2|inst1|get_call [2] $end
$var wire 1 X" inst2|inst1|get_call [1] $end
$var wire 1 Y" inst2|inst1|get_call [0] $end
$var wire 1 Z" inst1|inst5|cur_Floor [1] $end
$var wire 1 [" inst1|inst5|cur_Floor [0] $end
$var wire 1 \" inst|inst|state [3] $end
$var wire 1 ]" inst|inst|state [2] $end
$var wire 1 ^" inst|inst|state [1] $end
$var wire 1 _" inst|inst|state [0] $end
$var wire 1 `" inst|inst|sel_Con [1] $end
$var wire 1 a" inst|inst|sel_Con [0] $end
$var wire 1 b" inst2|inst|get_dest [3] $end
$var wire 1 c" inst2|inst|get_dest [2] $end
$var wire 1 d" inst2|inst|get_dest [1] $end
$var wire 1 e" inst2|inst|get_dest [0] $end
$var wire 1 f" inst|inst1|count [31] $end
$var wire 1 g" inst|inst1|count [30] $end
$var wire 1 h" inst|inst1|count [29] $end
$var wire 1 i" inst|inst1|count [28] $end
$var wire 1 j" inst|inst1|count [27] $end
$var wire 1 k" inst|inst1|count [26] $end
$var wire 1 l" inst|inst1|count [25] $end
$var wire 1 m" inst|inst1|count [24] $end
$var wire 1 n" inst|inst1|count [23] $end
$var wire 1 o" inst|inst1|count [22] $end
$var wire 1 p" inst|inst1|count [21] $end
$var wire 1 q" inst|inst1|count [20] $end
$var wire 1 r" inst|inst1|count [19] $end
$var wire 1 s" inst|inst1|count [18] $end
$var wire 1 t" inst|inst1|count [17] $end
$var wire 1 u" inst|inst1|count [16] $end
$var wire 1 v" inst|inst1|count [15] $end
$var wire 1 w" inst|inst1|count [14] $end
$var wire 1 x" inst|inst1|count [13] $end
$var wire 1 y" inst|inst1|count [12] $end
$var wire 1 z" inst|inst1|count [11] $end
$var wire 1 {" inst|inst1|count [10] $end
$var wire 1 |" inst|inst1|count [9] $end
$var wire 1 }" inst|inst1|count [8] $end
$var wire 1 ~" inst|inst1|count [7] $end
$var wire 1 !# inst|inst1|count [6] $end
$var wire 1 "# inst|inst1|count [5] $end
$var wire 1 ## inst|inst1|count [4] $end
$var wire 1 $# inst|inst1|count [3] $end
$var wire 1 %# inst|inst1|count [2] $end
$var wire 1 &# inst|inst1|count [1] $end
$var wire 1 '# inst|inst1|count [0] $end
$upscope $end
$upscope $end
$enddefinitions $end
#0
$dumpvars
0!
1"
b111111 #
b1111 $
0%
0'
0&
0-
0,
0+
0*
0)
0(
01
00
0/
0.
02
03
04
05
06
17
0;
0:
09
08
0<
0=
x>
0?
1@
xA
1B
1C
1D
1E
0F
1G
1H
1I
0J
1K
1L
1M
0N
1O
1P
1Q
0R
1S
1T
1U
0V
1W
1X
1Y
0Z
1[
1\
1]
0^
1_
1`
1a
0b
1c
1d
1e
0f
1g
1h
1i
0j
1k
1l
1m
0n
1o
1p
1q
0r
1s
1t
1u
0v
1w
1x
1y
0z
1{
1|
1}
0~
1!!
1"!
1#!
0$!
1%!
0&!
x'!
0(!
0)!
0*!
0+!
1,!
1-!
1.!
1/!
10!
11!
12!
13!
14!
15!
x6!
07!
08!
x9!
0:!
0;!
1<!
0=!
0>!
0?!
0@!
0A!
0B!
1C!
0D!
0E!
0F!
0G!
0H!
0I!
0J!
0K!
0L!
0M!
0N!
0O!
0P!
0Q!
0R!
0S!
0T!
0U!
0V!
xW!
0X!
1Y!
0Z!
0[!
0\!
1]!
1^!
0_!
0`!
1a!
1b!
0c!
0d!
0e!
1f!
0g!
1h!
1i!
xj!
1k!
xl!
xm!
xn!
1o!
0p!
0q!
0r!
0s!
0t!
0u!
0v!
0w!
1x!
0y!
1z!
0{!
1|!
0}!
0~!
0!"
0""
0#"
1$"
0%"
0&"
0'"
0("
1)"
0*"
1+"
0,"
0-"
0."
0/"
00"
01"
02"
13"
04"
x5"
16"
07"
08"
09"
1:"
0;"
0<"
0="
0>"
0?"
0@"
0A"
0B"
0C"
0D"
0E"
0F"
0G"
0H"
0I"
0J"
0K"
0L"
0M"
0N"
0O"
0P"
0Q"
1R"
1S"
0Y"
0X"
0W"
0V"
0U"
0T"
0["
0Z"
0_"
0^"
0]"
0\"
xa"
x`"
0e"
0d"
0c"
0b"
0'#
0&#
0%#
0$#
0##
0"#
0!#
0~"
0}"
0|"
0{"
0z"
0y"
0x"
0w"
0v"
0u"
0t"
0s"
0r"
0q"
0p"
0o"
0n"
0m"
0l"
0k"
0j"
0i"
0h"
0g"
0f"
$end
#5000
1!
1;!
1=!
0>
xX!
1_"
1O"
1M"
1J"
1H"
1E"
1s!
0f!
1d!
0b!
18!
17!
1V!
1e!
1;
1F"
09!
0a"
0`"
1t!
0h!
0i!
16!
05"
0'!
12"
1p!
0l!
0j!
1@!
0C!
1%
07
0W!
0m!
1n!
#10000
0!
0;!
0=!
1>
#15000
1!
1;!
1=!
0>
0X!
1'#
1%#
1^"
0_"
1F
0E
0-!
1J
0I
1C"
1{!
0E"
1b!
1U!
0V!
1:
0;
0H
0G
0L
0K
1a"
0F"
1I
1N
0M
15"
1'!
0P
0O
1R
0Q
0T
0S
1V
0U
0X
0W
1Z
0Y
0\
0[
1^
0]
0`
0_
1b
0a
0d
0c
1f
0e
0h
0g
1j
0i
0l
0k
1n
0m
0p
0o
1r
0q
0t
0s
1v
0u
0x
0w
1z
0y
0|
0{
1~
0}
0"!
0!!
1$!
0#!
0%!
#20000
0!
0;!
0=!
1>
#25000
1!
1;!
1=!
0>
0^"
1_"
0C"
0{!
1E"
0b!
0U!
1V!
0:
1;
0a"
1F"
05"
0'!
#30000
0!
0;!
0=!
1>
#35000
1!
1;!
1=!
0>
1^"
0_"
1C"
1{!
0E"
1b!
1U!
0V!
1:
0;
1a"
0F"
15"
1'!
#40000
0!
0;!
0=!
1>
#45000
1!
1;!
1=!
0>
0^"
1_"
0C"
0{!
1E"
0b!
0U!
1V!
0:
1;
0a"
1F"
05"
0'!
#50000
0!
0;!
0=!
1>
#55000
1!
1;!
1=!
0>
1^"
0_"
1C"
1{!
0E"
1b!
1U!
0V!
1:
0;
1a"
0F"
15"
1'!
#60000
0!
0;!
0=!
1>
#65000
1!
1;!
1=!
0>
0^"
1_"
0C"
0{!
1E"
0b!
0U!
1V!
0:
1;
0a"
1F"
05"
0'!
#70000
0!
0;!
0=!
1>
#75000
1!
1;!
1=!
0>
1^"
0_"
1C"
1{!
0E"
1b!
1U!
0V!
1:
0;
1a"
0F"
15"
1'!
#80000
0!
0;!
0=!
1>
#85000
1!
1;!
1=!
0>
0^"
1_"
0C"
0{!
1E"
0b!
0U!
1V!
0:
1;
0a"
1F"
05"
0'!
#90000
0!
0;!
0=!
1>
#95000
1!
1;!
1=!
0>
1^"
0_"
1C"
1{!
0E"
1b!
1U!
0V!
1:
0;
1a"
0F"
15"
1'!
#100000
0!
0;!
0=!
1>
#105000
1!
1;!
1=!
0>
0^"
1_"
0C"
0{!
1E"
0b!
0U!
1V!
0:
1;
0a"
1F"
05"
0'!
#110000
0!
0;!
0=!
1>
#115000
1!
1;!
1=!
0>
1^"
0_"
1C"
1{!
0E"
1b!
1U!
0V!
1:
0;
1a"
0F"
15"
1'!
#120000
0!
0;!
0=!
1>
#125000
1!
1;!
1=!
0>
0^"
1_"
0C"
0{!
1E"
0b!
0U!
1V!
0:
1;
0a"
1F"
05"
0'!
#130000
0!
0;!
0=!
1>
#135000
1!
1;!
1=!
0>
1^"
0_"
1C"
1{!
0E"
1b!
1U!
0V!
1:
0;
1a"
0F"
15"
1'!
#140000
0!
0;!
0=!
1>
#145000
1!
1;!
1=!
0>
0^"
1_"
0C"
0{!
1E"
0b!
0U!
1V!
0:
1;
0a"
1F"
05"
0'!
#150000
0!
0;!
0=!
1>
#155000
1!
1;!
1=!
0>
1^"
0_"
1C"
1{!
0E"
1b!
1U!
0V!
1:
0;
1a"
0F"
15"
1'!
#160000
0!
0;!
0=!
1>
#165000
1!
1;!
1=!
0>
0^"
1_"
0C"
0{!
1E"
0b!
0U!
1V!
0:
1;
0a"
1F"
05"
0'!
#170000
0!
0;!
0=!
1>
#175000
1!
1;!
1=!
0>
1^"
0_"
1C"
1{!
0E"
1b!
1U!
0V!
1:
0;
1a"
0F"
15"
1'!
#180000
0!
0;!
0=!
1>
#185000
1!
1;!
1=!
0>
0^"
1_"
0C"
0{!
1E"
0b!
0U!
1V!
0:
1;
0a"
1F"
05"
0'!
#190000
0!
0;!
0=!
1>
#195000
1!
1;!
1=!
0>
1^"
0_"
1C"
1{!
0E"
1b!
1U!
0V!
1:
0;
1a"
0F"
15"
1'!
#200000
0!
0;!
0=!
1>
#205000
1!
1;!
1=!
0>
0^"
1_"
0C"
0{!
1E"
0b!
0U!
1V!
0:
1;
0a"
1F"
05"
0'!
#210000
0!
0;!
0=!
1>
#215000
1!
1;!
1=!
0>
1^"
0_"
1C"
1{!
0E"
1b!
1U!
0V!
1:
0;
1a"
0F"
15"
1'!
#220000
0!
0;!
0=!
1>
#225000
1!
1;!
1=!
0>
0^"
1_"
0C"
0{!
1E"
0b!
0U!
1V!
0:
1;
0a"
1F"
05"
0'!
#230000
0"
0!
0]!
0;!
0^!
0=!
1>
0_"
0O"
0M"
0J"
0H"
0F"
0E"
0s!
1f!
0d!
1b!
08!
07!
0V!
0e!
0;
0t!
1h!
1i!
02"
0p!
0@!
1C!
0%
17
#235000
1!
1;!
1=!
0>
#240000
0!
0;!
0=!
1>
#245000
1!
1;!
1=!
0>
#250000
0!
0;!
0=!
1>
#255000
1!
1;!
1=!
0>
#260000
1"
0!
1]!
0;!
1^!
0=!
1>
#265000
1!
1;!
1=!
0>
1_"
1O"
1M"
1J"
1H"
1E"
1s!
0f!
1d!
0b!
18!
17!
1V!
1e!
1;
1F"
1t!
0h!
0i!
12"
1p!
1@!
0C!
1%
07
#270000
0!
0;!
0=!
1>
#275000
1!
1;!
1=!
0>
1^"
0_"
1C"
1{!
0E"
1b!
1U!
0V!
1:
0;
1a"
0F"
15"
1'!
#280000
0!
0;!
0=!
1>
#285000
1!
1;!
1=!
0>
0^"
1_"
0C"
0{!
1E"
0b!
0U!
1V!
0:
1;
0a"
1F"
05"
0'!
#290000
0!
0;!
0=!
1>
#295000
1!
1;!
1=!
0>
1^"
0_"
1C"
1{!
0E"
1b!
1U!
0V!
1:
0;
1a"
0F"
15"
1'!
#300000
0!
0;!
0=!
1>
#305000
1!
1;!
1=!
0>
0^"
1_"
0C"
0{!
1E"
0b!
0U!
1V!
0:
1;
0a"
1F"
05"
0'!
#310000
0!
0;!
0=!
1>
#315000
1!
1;!
1=!
0>
1^"
0_"
1C"
1{!
0E"
1b!
1U!
0V!
1:
0;
1a"
0F"
15"
1'!
#320000
0!
0;!
0=!
1>
#325000
1!
1;!
1=!
0>
0^"
1_"
0C"
0{!
1E"
0b!
0U!
1V!
0:
1;
0a"
1F"
05"
0'!
#330000
0!
0;!
0=!
1>
#335000
1!
1;!
1=!
0>
1^"
0_"
1C"
1{!
0E"
1b!
1U!
0V!
1:
0;
1a"
0F"
15"
1'!
#340000
0!
0;!
0=!
1>
#345000
1!
1;!
1=!
0>
0^"
1_"
0C"
0{!
1E"
0b!
0U!
1V!
0:
1;
0a"
1F"
05"
0'!
#350000
0!
0;!
0=!
1>
#355000
1!
1;!
1=!
0>
1^"
0_"
1C"
1{!
0E"
1b!
1U!
0V!
1:
0;
1a"
0F"
15"
1'!
#360000
0!
0;!
0=!
1>
#365000
1!
1;!
1=!
0>
0^"
1_"
0C"
0{!
1E"
0b!
0U!
1V!
0:
1;
0a"
1F"
05"
0'!
#370000
0!
0;!
0=!
1>
#375000
1!
1;!
1=!
0>
1^"
0_"
1C"
1{!
0E"
1b!
1U!
0V!
1:
0;
1a"
0F"
15"
1'!
#380000
0!
0;!
0=!
1>
#385000
1!
1;!
1=!
0>
0^"
1_"
0C"
0{!
1E"
0b!
0U!
1V!
0:
1;
0a"
1F"
05"
0'!
#390000
0!
0;!
0=!
1>
#395000
1!
1;!
1=!
0>
1^"
0_"
1C"
1{!
0E"
1b!
1U!
0V!
1:
0;
1a"
0F"
15"
1'!
#400000
0!
0;!
0=!
1>
#405000
1!
1;!
1=!
0>
0^"
1_"
0C"
0{!
1E"
0b!
0U!
1V!
0:
1;
0a"
1F"
05"
0'!
#410000
b101111 #
0!
0+"
0;!
0=!
1>
1-"
1,"
1U"
1="
1J!
1)
1>"
1?"
1@"
#415000
1!
1;!
1=!
0>
1^"
1A"
0_"
1C"
1{!
1Z!
0E"
1B"
1b!
1U!
1F!
0V!
1:
16
0;
1D"
1a"
0F"
0="
15"
1'!
0>"
1(!
0?"
0@"
#420000
0!
0;!
0=!
1>
#425000
1!
1;!
1=!
0>
0^"
1\"
0A"
1_"
1P"
0O"
1F"
0{!
0s!
0d!
1`!
0Z!
08!
07!
1)!
0b!
0U!
1S!
0F!
1V!
0e!
0:
18
06
1;
0a!
1Q"
1N"
0t!
0R"
0S"
02"
0p!
1B!
1A!
0@!
1<
1=
0%
1D!
1E!
14
13
#430000
0!
0;!
0=!
1>
#435000
1!
1;!
1=!
0>
1^"
0_"
0P"
1O"
1{!
1s!
1r!
18!
0B"
1U!
0V!
1:
0;
19!
#440000
0!
0;!
0=!
1>
#445000
1!
1;!
1=!
0>
0'#
0F
1E
1H
1G
0I
#450000
0!
0;!
0=!
1>
#455000
1!
1;!
1=!
0>
1'#
0%#
1&#
1F
0E
0J
1I
0H
0G
1G
1L
1K
1J
0I
0N
1M
0L
0K
1P
1O
1N
0M
0R
1Q
0P
0O
1T
1S
1R
0Q
0V
1U
0T
0S
1X
1W
1V
0U
0Z
1Y
0X
0W
1\
1[
1Z
0Y
0^
1]
0\
0[
1`
1_
1^
0]
0b
1a
0`
0_
1d
1c
1b
0a
0f
1e
0d
0c
1h
1g
1f
0e
0j
1i
0h
0g
1l
1k
1j
0i
0n
1m
0l
0k
1p
1o
1n
0m
0r
1q
0p
0o
1t
1s
1r
0q
0v
1u
0t
0s
1x
1w
1v
0u
0z
1y
0x
0w
1|
1{
1z
0y
0~
1}
0|
0{
1"!
1!!
1~
0}
0$!
1#!
0"!
0!!
1%!
1$!
0#!
0%!
#460000
0!
0;!
0=!
1>
#465000
1!
1;!
1=!
0>
0'#
0F
1E
0G
#470000
0!
0;!
0=!
1>
#475000
1!
1;!
1=!
0>
1'#
0&#
1F
0E
1-!
1H
1G
0H
0G
06!
0J
1I
1J
0I
1W!
1L
1K
0L
0K
0N
1M
1N
0M
1P
1O
0P
0O
0R
1Q
1R
0Q
1T
1S
0T
0S
0V
1U
1V
0U
1X
1W
0X
0W
0Z
1Y
1Z
0Y
1\
1[
0\
0[
0^
1]
1^
0]
1`
1_
0`
0_
0b
1a
1b
0a
1d
1c
0d
0c
0f
1e
1f
0e
1h
1g
0h
0g
0j
1i
1j
0i
1l
1k
0l
0k
0n
1m
1n
0m
1p
1o
0p
0o
0r
1q
1r
0q
1t
1s
0t
0s
0v
1u
1v
0u
1x
1w
0x
0w
0z
1y
1z
0y
1|
1{
0|
0{
0~
1}
1~
0}
1"!
1!!
0"!
0!!
0$!
1#!
1$!
0#!
1%!
0%!
#480000
0!
0;!
0=!
1>
#485000
1!
1;!
1=!
0>
1X!
1a!
0Y!
1b!
#490000
0!
0;!
0=!
1>
#495000
1!
1;!
1=!
0>
1_"
1K"
0J"
0F"
1B"
0b!
0a!
1\!
1Z!
1Y!
17!
1V!
1;
09!
1L"
16!
1j!
1*!
1?!
15
0W!
0n!
1m!
#500000
b111111 #
0!
1+"
0;!
0=!
1>
0-"
0,"
#505000
1!
1;!
1=!
0>
0X!
1%#
0^"
1]"
0_"
0-!
1I
0K"
1d!
0`!
1_!
0\!
0Z!
08!
07!
1c!
1[!
0B"
0U!
1T!
0V!
1e!
0:
19
0;
1a!
1`"
1\!
0L"
1b!
0j!
0*!
0?!
05
1n!
0m!
#510000
0!
0;!
0=!
1>
#515000
1!
1;!
1=!
0>
1_"
1J"
1F"
1E"
1B"
0c!
1`!
0_!
1V!
1;
0`"
0a!
0b!
#520000
0!
0;!
0=!
1>
#525000
1!
1;!
1=!
0>
1^"
0_"
0O"
0{!
0r!
0d!
1_!
18!
0E"
0B"
1c!
1U!
0V!
0e!
1:
0;
19!
0Q"
1t!
1R"
12"
1p!
0B!
1@!
0<
1%
0D!
04
#530000
0!
0;!
0=!
1>
#535000
1!
1;!
1=!
0>
0'#
0F
1E
1H
1G
0I
#540000
0!
0;!
0=!
1>
#545000
1!
1;!
1=!
0>
1'#
0%#
1&#
1F
0E
0J
1I
0H
0G
1G
1L
1K
1J
0I
0N
1M
0L
0K
1P
1O
1N
0M
0R
1Q
0P
0O
1T
1S
1R
0Q
0V
1U
0T
0S
1X
1W
1V
0U
0Z
1Y
0X
0W
1\
1[
1Z
0Y
0^
1]
0\
0[
1`
1_
1^
0]
0b
1a
0`
0_
1d
1c
1b
0a
0f
1e
0d
0c
1h
1g
1f
0e
0j
1i
0h
0g
1l
1k
1j
0i
0n
1m
0l
0k
1p
1o
1n
0m
0r
1q
0p
0o
1t
1s
1r
0q
0v
1u
0t
0s
1x
1w
1v
0u
0z
1y
0x
0w
1|
1{
1z
0y
0~
1}
0|
0{
1"!
1!!
1~
0}
0$!
1#!
0"!
0!!
1%!
1$!
0#!
0%!
#550000
0!
0;!
0=!
1>
#555000
1!
1;!
1=!
0>
0'#
0F
1E
0G
#560000
0!
0;!
0=!
1>
